^D:\INTELLIAN SYSTEMS\HSSHIN\PROJECTS\IFRAME\BRANCHES\I-VISION 2.1 (TRUNK)\TVCONFIGURATION\DEVICECONFIGURATION.RESX
C:\WINDOWS\ASSEMBLY\PUBPOL52.DAT
^D:\INTELLIAN SYSTEMS\HSSHIN\PROJECTS\IFRAME\BRANCHES\I-VISION 2.1 (TRUNK)\TVCONFIGURATION\SEARCHFORM.RESX
^D:\INTELLIAN SYSTEMS\HSSHIN\PROJECTS\IFRAME\BRANCHES\I-VISION 2.1 (TRUNK)\TVCONFIGURATION\TVCONFIGURATION.RESX
^D:\INTELLIAN SYSTEMS\HSSHIN\PROJECTS\IFRAME\BRANCHES\I-VISION 2.1 (TRUNK)\TVCONFIGURATION\PROPERTIES\RESOURCES.RESX
