^D:\INTELLIAN SYSTEMS\HSSHIN\PROJECTS\IFRAME\BRANCHES\I-VISION 2.1 (TRUNK)\DIGITALSIGNAGE.SCHEDULER\COMPONENTS\SPREADSHEET.RESX
^D:\INTELLIAN SYSTEMS\HSSHIN\PROJECTS\IFRAME\BRANCHES\I-VISION 2.1 (TRUNK)\DIGITALSIGNAGE.SCHEDULER\CULTURES\RESOURCES.RESX
C:\WINDOWS\ASSEMBLY\PUBPOL52.DAT
D:\INTELLIAN SYSTEMS\HSSHIN\PROJECTS\IFRAME\BRANCHES\I-VISION 2.1 (TRUNK)\DIGITALSIGNAGE.SCHEDULER\IMAGES\FTPOFF.PNG
D:\INTELLIAN SYSTEMS\HSSHIN\PROJECTS\IFRAME\BRANCHES\I-VISION 2.1 (TRUNK)\DIGITALSIGNAGE.SCHEDULER\IMAGES\FTP.PNG
D:\INTELLIAN SYSTEMS\HSSHIN\PROJECTS\IFRAME\BRANCHES\I-VISION 2.1 (TRUNK)\DIGITALSIGNAGE.SCHEDULER\IMAGES\NOTFOUND.PNG
D:\INTELLIAN SYSTEMS\HSSHIN\PROJECTS\IFRAME\BRANCHES\I-VISION 2.1 (TRUNK)\DIGITALSIGNAGE.SCHEDULER\IMAGES\SERVICE.PNG
D:\INTELLIAN SYSTEMS\HSSHIN\PROJECTS\IFRAME\BRANCHES\I-VISION 2.1 (TRUNK)\DIGITALSIGNAGE.SCHEDULER\IMAGES\TEXTALIGNCENTER.PNG
D:\INTELLIAN SYSTEMS\HSSHIN\PROJECTS\IFRAME\BRANCHES\I-VISION 2.1 (TRUNK)\DIGITALSIGNAGE.SCHEDULER\IMAGES\TEXTALIGNLEFT.PNG
D:\INTELLIAN SYSTEMS\HSSHIN\PROJECTS\IFRAME\BRANCHES\I-VISION 2.1 (TRUNK)\DIGITALSIGNAGE.SCHEDULER\IMAGES\TEXTALIGNRIGHT.PNG
D:\INTELLIAN SYSTEMS\HSSHIN\PROJECTS\IFRAME\BRANCHES\I-VISION 2.1 (TRUNK)\DIGITALSIGNAGE.SCHEDULER\IMAGES\ICON_16X16.PNG
D:\INTELLIAN SYSTEMS\HSSHIN\PROJECTS\IFRAME\BRANCHES\I-VISION 2.1 (TRUNK)\DIGITALSIGNAGE.SCHEDULER\IMAGES\ICON16_ADD_GROUP.PNG
D:\INTELLIAN SYSTEMS\HSSHIN\PROJECTS\IFRAME\BRANCHES\I-VISION 2.1 (TRUNK)\DIGITALSIGNAGE.SCHEDULER\IMAGES\ICON16_ADD_PLAYER.PNG
D:\INTELLIAN SYSTEMS\HSSHIN\PROJECTS\IFRAME\BRANCHES\I-VISION 2.1 (TRUNK)\DIGITALSIGNAGE.SCHEDULER\IMAGES\ICON16_ADD_PROGRAM_TASK.PNG
D:\INTELLIAN SYSTEMS\HSSHIN\PROJECTS\IFRAME\BRANCHES\I-VISION 2.1 (TRUNK)\DIGITALSIGNAGE.SCHEDULER\IMAGES\ICON16_ADD_SUBTITLE_TASK.PNG
D:\INTELLIAN SYSTEMS\HSSHIN\PROJECTS\IFRAME\BRANCHES\I-VISION 2.1 (TRUNK)\DIGITALSIGNAGE.SCHEDULER\IMAGES\ICON16_DELETE_GROUP.PNG
D:\INTELLIAN SYSTEMS\HSSHIN\PROJECTS\IFRAME\BRANCHES\I-VISION 2.1 (TRUNK)\DIGITALSIGNAGE.SCHEDULER\IMAGES\ICON16_DELETE_PLAYER.PNG
D:\INTELLIAN SYSTEMS\HSSHIN\PROJECTS\IFRAME\BRANCHES\I-VISION 2.1 (TRUNK)\DIGITALSIGNAGE.SCHEDULER\IMAGES\ICON16_DELETE_TASK.PNG
D:\INTELLIAN SYSTEMS\HSSHIN\PROJECTS\IFRAME\BRANCHES\I-VISION 2.1 (TRUNK)\DIGITALSIGNAGE.SCHEDULER\IMAGES\ICON16_EDIT_GROUP.PNG
D:\INTELLIAN SYSTEMS\HSSHIN\PROJECTS\IFRAME\BRANCHES\I-VISION 2.1 (TRUNK)\DIGITALSIGNAGE.SCHEDULER\IMAGES\ICON16_EDIT_PLAYER.PNG
D:\INTELLIAN SYSTEMS\HSSHIN\PROJECTS\IFRAME\BRANCHES\I-VISION 2.1 (TRUNK)\DIGITALSIGNAGE.SCHEDULER\IMAGES\ICON16_EDIT_TASK.PNG
D:\INTELLIAN SYSTEMS\HSSHIN\PROJECTS\IFRAME\BRANCHES\I-VISION 2.1 (TRUNK)\DIGITALSIGNAGE.SCHEDULER\IMAGES\ICON_STATUS_OFF.PNG
D:\INTELLIAN SYSTEMS\HSSHIN\PROJECTS\IFRAME\BRANCHES\I-VISION 2.1 (TRUNK)\DIGITALSIGNAGE.SCHEDULER\IMAGES\ICON_STATUS_ON.PNG
D:\INTELLIAN SYSTEMS\HSSHIN\PROJECTS\IFRAME\BRANCHES\I-VISION 2.1 (TRUNK)\DIGITALSIGNAGE.SCHEDULER\IMAGES\ICON16_TASK_WIZARD.PNG
D:\INTELLIAN SYSTEMS\HSSHIN\PROJECTS\IFRAME\BRANCHES\I-VISION 2.1 (TRUNK)\DIGITALSIGNAGE.SCHEDULER\IMAGES\ICON16_USER_MANAGEMENT.PNG
D:\INTELLIAN SYSTEMS\HSSHIN\PROJECTS\IFRAME\BRANCHES\I-VISION 2.1 (TRUNK)\DIGITALSIGNAGE.SCHEDULER\IMAGES\I_VISION_16X16.PNG
D:\INTELLIAN SYSTEMS\HSSHIN\PROJECTS\IFRAME\BRANCHES\I-VISION 2.1 (TRUNK)\DIGITALSIGNAGE.SCHEDULER\IMAGES\I_VISION_27X27.PNG
D:\INTELLIAN SYSTEMS\HSSHIN\PROJECTS\IFRAME\BRANCHES\I-VISION 2.1 (TRUNK)\DIGITALSIGNAGE.SCHEDULER\IMAGES\16RE-SCHEDULE.PNG
D:\INTELLIAN SYSTEMS\HSSHIN\PROJECTS\IFRAME\BRANCHES\I-VISION 2.1 (TRUNK)\DIGITALSIGNAGE.SCHEDULER\IMAGES\NETWORK-GROUP.PNG
D:\INTELLIAN SYSTEMS\HSSHIN\PROJECTS\IFRAME\BRANCHES\I-VISION 2.1 (TRUNK)\DIGITALSIGNAGE.SCHEDULER\IMAGES\PLAYER-GROUP.PNG
D:\INTELLIAN SYSTEMS\HSSHIN\PROJECTS\IFRAME\BRANCHES\I-VISION 2.1 (TRUNK)\DIGITALSIGNAGE.SCHEDULER\IMAGES\ZOOM-IN16.PNG
D:\INTELLIAN SYSTEMS\HSSHIN\PROJECTS\IFRAME\BRANCHES\I-VISION 2.1 (TRUNK)\DIGITALSIGNAGE.SCHEDULER\IMAGES\DELETE.PNG
D:\INTELLIAN SYSTEMS\HSSHIN\PROJECTS\IFRAME\BRANCHES\I-VISION 2.1 (TRUNK)\DIGITALSIGNAGE.SCHEDULER\IMAGES\PLUS.PNG
D:\INTELLIAN SYSTEMS\HSSHIN\PROJECTS\IFRAME\BRANCHES\I-VISION 2.1 (TRUNK)\DIGITALSIGNAGE.SCHEDULER\IMAGES\SAVE.PNG
D:\INTELLIAN SYSTEMS\HSSHIN\PROJECTS\IFRAME\BRANCHES\I-VISION 2.1 (TRUNK)\DIGITALSIGNAGE.SCHEDULER\IMAGES\ICON_EXPORT.PNG
D:\INTELLIAN SYSTEMS\HSSHIN\PROJECTS\IFRAME\BRANCHES\I-VISION 2.1 (TRUNK)\DIGITALSIGNAGE.SCHEDULER\IMAGES\ICON_PREVIEW.PNG
D:\INTELLIAN SYSTEMS\HSSHIN\PROJECTS\IFRAME\BRANCHES\I-VISION 2.1 (TRUNK)\DIGITALSIGNAGE.SCHEDULER\IMAGES\16LIMITREGISTRATION.PNG
D:\INTELLIAN SYSTEMS\HSSHIN\PROJECTS\IFRAME\BRANCHES\I-VISION 2.1 (TRUNK)\DIGITALSIGNAGE.SCHEDULER\IMAGES\16LIMITREMOVE.PNG
D:\INTELLIAN SYSTEMS\HSSHIN\PROJECTS\IFRAME\BRANCHES\I-VISION 2.1 (TRUNK)\DIGITALSIGNAGE.SCHEDULER\IMAGES\ALL-SELECT.PNG
D:\INTELLIAN SYSTEMS\HSSHIN\PROJECTS\IFRAME\BRANCHES\I-VISION 2.1 (TRUNK)\DIGITALSIGNAGE.SCHEDULER\IMAGES\BRING-TO-FRONT.PNG
D:\INTELLIAN SYSTEMS\HSSHIN\PROJECTS\IFRAME\BRANCHES\I-VISION 2.1 (TRUNK)\DIGITALSIGNAGE.SCHEDULER\IMAGES\ICON16_ADD_CONTROL_TASK.PNG
D:\INTELLIAN SYSTEMS\HSSHIN\PROJECTS\IFRAME\BRANCHES\I-VISION 2.1 (TRUNK)\DIGITALSIGNAGE.SCHEDULER\IMAGES\AMT.PNG
D:\INTELLIAN SYSTEMS\HSSHIN\PROJECTS\IFRAME\BRANCHES\I-VISION 2.1 (TRUNK)\DIGITALSIGNAGE.SCHEDULER\IMAGES\WOL.PNG
D:\INTELLIAN SYSTEMS\HSSHIN\PROJECTS\IFRAME\BRANCHES\I-VISION 2.1 (TRUNK)\DIGITALSIGNAGE.SCHEDULER\IMAGES\POWER_OFF.PNG
D:\INTELLIAN SYSTEMS\HSSHIN\PROJECTS\IFRAME\BRANCHES\I-VISION 2.1 (TRUNK)\DIGITALSIGNAGE.SCHEDULER\IMAGES\POWER_ON.PNG
D:\INTELLIAN SYSTEMS\HSSHIN\PROJECTS\IFRAME\BRANCHES\I-VISION 2.1 (TRUNK)\DIGITALSIGNAGE.SCHEDULER\IMAGES\POWER_RESTART.PNG
D:\INTELLIAN SYSTEMS\HSSHIN\PROJECTS\IFRAME\BRANCHES\I-VISION 2.1 (TRUNK)\DIGITALSIGNAGE.SCHEDULER\IMAGES\16_LOG_SCHEDULE.PNG
D:\INTELLIAN SYSTEMS\HSSHIN\PROJECTS\IFRAME\BRANCHES\I-VISION 2.1 (TRUNK)\DIGITALSIGNAGE.SCHEDULER\IMAGES\16_LOG_VIEW.PNG
D:\INTELLIAN SYSTEMS\HSSHIN\PROJECTS\IFRAME\BRANCHES\I-VISION 2.1 (TRUNK)\DIGITALSIGNAGE.SCHEDULER\IMAGES\16_REPORT_VIEW.PNG
D:\INTELLIAN SYSTEMS\HSSHIN\PROJECTS\IFRAME\BRANCHES\I-VISION 2.1 (TRUNK)\DIGITALSIGNAGE.SCHEDULER\IMAGES\TIMELINE_AD.PNG
D:\INTELLIAN SYSTEMS\HSSHIN\PROJECTS\IFRAME\BRANCHES\I-VISION 2.1 (TRUNK)\DIGITALSIGNAGE.SCHEDULER\IMAGES\TIMELINE_EVENT.PNG
D:\INTELLIAN SYSTEMS\HSSHIN\PROJECTS\IFRAME\BRANCHES\I-VISION 2.1 (TRUNK)\DIGITALSIGNAGE.SCHEDULER\IMAGES\TIMELINE_EVENTONLY.PNG
D:\INTELLIAN SYSTEMS\HSSHIN\PROJECTS\IFRAME\BRANCHES\I-VISION 2.1 (TRUNK)\DIGITALSIGNAGE.SCHEDULER\IMAGES\TIMELINE_ICONLIST.PNG
D:\INTELLIAN SYSTEMS\HSSHIN\PROJECTS\IFRAME\BRANCHES\I-VISION 2.1 (TRUNK)\DIGITALSIGNAGE.SCHEDULER\IMAGES\TIMELINE_ONLY.PNG
D:\INTELLIAN SYSTEMS\HSSHIN\PROJECTS\IFRAME\BRANCHES\I-VISION 2.1 (TRUNK)\DIGITALSIGNAGE.SCHEDULER\IMAGES\ICON_STATUS_NONE.PNG
D:\INTELLIAN SYSTEMS\HSSHIN\PROJECTS\IFRAME\BRANCHES\I-VISION 2.1 (TRUNK)\DIGITALSIGNAGE.SCHEDULER\RESOURCES\TIMELINE_TOUCH.PNG
^D:\INTELLIAN SYSTEMS\HSSHIN\PROJECTS\IFRAME\BRANCHES\I-VISION 2.1 (TRUNK)\DIGITALSIGNAGE.SCHEDULER\CULTURES\RESOURCES.KO-KR.RESX
D:\INTELLIAN SYSTEMS\HSSHIN\PROJECTS\IFRAME\BRANCHES\I-VISION 2.1 (TRUNK)\DIGITALSIGNAGE.SCHEDULER\IMAGES\FTPOFF.PNG
D:\INTELLIAN SYSTEMS\HSSHIN\PROJECTS\IFRAME\BRANCHES\I-VISION 2.1 (TRUNK)\DIGITALSIGNAGE.SCHEDULER\IMAGES\FTP.PNG
D:\INTELLIAN SYSTEMS\HSSHIN\PROJECTS\IFRAME\BRANCHES\I-VISION 2.1 (TRUNK)\DIGITALSIGNAGE.SCHEDULER\IMAGES\NOTFOUND.PNG
D:\INTELLIAN SYSTEMS\HSSHIN\PROJECTS\IFRAME\BRANCHES\I-VISION 2.1 (TRUNK)\DIGITALSIGNAGE.SCHEDULER\IMAGES\SERVICE.PNG
D:\INTELLIAN SYSTEMS\HSSHIN\PROJECTS\IFRAME\BRANCHES\I-VISION 2.1 (TRUNK)\DIGITALSIGNAGE.SCHEDULER\IMAGES\TEXTALIGNCENTER.PNG
D:\INTELLIAN SYSTEMS\HSSHIN\PROJECTS\IFRAME\BRANCHES\I-VISION 2.1 (TRUNK)\DIGITALSIGNAGE.SCHEDULER\IMAGES\TEXTALIGNLEFT.PNG
D:\INTELLIAN SYSTEMS\HSSHIN\PROJECTS\IFRAME\BRANCHES\I-VISION 2.1 (TRUNK)\DIGITALSIGNAGE.SCHEDULER\IMAGES\TEXTALIGNRIGHT.PNG
D:\INTELLIAN SYSTEMS\HSSHIN\PROJECTS\IFRAME\BRANCHES\I-VISION 2.1 (TRUNK)\DIGITALSIGNAGE.SCHEDULER\CULTURES\RESOURCES.KO-KR.DESIGNER.CS
^D:\INTELLIAN SYSTEMS\HSSHIN\PROJECTS\IFRAME\BRANCHES\I-VISION 2.1 (TRUNK)\DIGITALSIGNAGE.SCHEDULER\CULTURES\RESOURCES.EN-US.RESX
D:\INTELLIAN SYSTEMS\HSSHIN\PROJECTS\IFRAME\BRANCHES\I-VISION 2.1 (TRUNK)\DIGITALSIGNAGE.SCHEDULER\IMAGES\FTPOFF.PNG
D:\INTELLIAN SYSTEMS\HSSHIN\PROJECTS\IFRAME\BRANCHES\I-VISION 2.1 (TRUNK)\DIGITALSIGNAGE.SCHEDULER\IMAGES\FTP.PNG
D:\INTELLIAN SYSTEMS\HSSHIN\PROJECTS\IFRAME\BRANCHES\I-VISION 2.1 (TRUNK)\DIGITALSIGNAGE.SCHEDULER\IMAGES\NOTFOUND.PNG
D:\INTELLIAN SYSTEMS\HSSHIN\PROJECTS\IFRAME\BRANCHES\I-VISION 2.1 (TRUNK)\DIGITALSIGNAGE.SCHEDULER\IMAGES\SERVICE.PNG
D:\INTELLIAN SYSTEMS\HSSHIN\PROJECTS\IFRAME\BRANCHES\I-VISION 2.1 (TRUNK)\DIGITALSIGNAGE.SCHEDULER\IMAGES\TEXTALIGNCENTER.PNG
D:\INTELLIAN SYSTEMS\HSSHIN\PROJECTS\IFRAME\BRANCHES\I-VISION 2.1 (TRUNK)\DIGITALSIGNAGE.SCHEDULER\IMAGES\TEXTALIGNLEFT.PNG
D:\INTELLIAN SYSTEMS\HSSHIN\PROJECTS\IFRAME\BRANCHES\I-VISION 2.1 (TRUNK)\DIGITALSIGNAGE.SCHEDULER\IMAGES\TEXTALIGNRIGHT.PNG
