^D:\INTELLIAN SYSTEMS\HSSHIN\PROJECTS\IFRAME\BRANCHES\I-VISION 2.1 (TRUNK)\MANAGERUPDATER\PROPERTIES\RESOURCES.RESX|D:\INTELLIAN SYSTEMS\HSSHIN\PROJECTS\IFRAME\BRANCHES\I-VISION 2.1 (TRUNK)\MANAGERUPDATER\UPDATEFORM.RESX
D:\INTELLIAN SYSTEMS\HSSHIN\PROJECTS\IFRAME\BRANCHES\I-VISION 2.1 (TRUNK)\MANAGERUPDATER\OBJ\X64\RELEASE\MANAGERUPDATER.UPDATEFORM.RESOURCES
D:\INTELLIAN SYSTEMS\HSSHIN\PROJECTS\IFRAME\BRANCHES\I-VISION 2.1 (TRUNK)\MANAGERUPDATER\OBJ\X64\RELEASE\MANAGERUPDATER.PROPERTIES.RESOURCES.RESOURCES
