^D:\INTELLIAN SYSTEMS\HSSHIN\PROJECTS\IFRAME\BRANCHES\I-VISION 2.1 (TRUNK)\IVISIONUPDATER\FORM1.RESX
C:\WINDOWS\ASSEMBLY\PUBPOL62.DAT
^D:\INTELLIAN SYSTEMS\HSSHIN\PROJECTS\IFRAME\BRANCHES\I-VISION 2.1 (TRUNK)\IVISIONUPDATER\PROPERTIES\RESOURCES.RESX
^D:\INTELLIAN SYSTEMS\HSSHIN\PROJECTS\IFRAME\BRANCHES\I-VISION 2.1 (TRUNK)\IVISIONUPDATER\UPDATERFORM.RESX
^D:\INTELLIAN SYSTEMS\HSSHIN\PROJECTS\IFRAME\BRANCHES\I-VISION 2.1 (TRUNK)\IVISIONUPDATER\PROPERTIES\RESOURCES.KO-KR.RESX
^E:\INTELLIAN\PROJECTS\IFRAME\BRANCHES\I-VISION 2.1 (TRUNK)\IVISIONUPDATER\FORM1.RESX
C:\WINDOWS\ASSEMBLY\PUBPOL48.DAT
^E:\INTELLIAN\PROJECTS\IFRAME\BRANCHES\I-VISION 2.1 (TRUNK)\IVISIONUPDATER\PROPERTIES\RESOURCES.KO-KR.RESX
^E:\INTELLIAN\PROJECTS\IFRAME\BRANCHES\I-VISION 2.1 (TRUNK)\IVISIONUPDATER\PROPERTIES\RESOURCES.RESX
^E:\INTELLIAN\PROJECTS\IFRAME\BRANCHES\I-VISION 2.1 (TRUNK)\IVISIONUPDATER\UPDATERFORM.RESX
