^D:\INTELLIAN SYSTEMS\HSSHIN\PROJECTS\IFRAME\BRANCHES\I-VISION 2.1 (TRUNK)\TESTTASKCONTROLHANDLER\FORM1.RESX|D:\INTELLIAN SYSTEMS\HSSHIN\PROJECTS\IFRAME\BRANCHES\I-VISION 2.1 (TRUNK)\TESTTASKCONTROLHANDLER\PROPERTIES\RESOURCES.RESX
D:\INTELLIAN SYSTEMS\HSSHIN\PROJECTS\IFRAME\BRANCHES\I-VISION 2.1 (TRUNK)\TESTTASKCONTROLHANDLER\OBJ\X86\RELEASE\TESTTASKCONTROLHANDLER.FORM1.RESOURCES
D:\INTELLIAN SYSTEMS\HSSHIN\PROJECTS\IFRAME\BRANCHES\I-VISION 2.1 (TRUNK)\TESTTASKCONTROLHANDLER\OBJ\X86\RELEASE\TESTTASKCONTROLHANDLER.PROPERTIES.RESOURCES.RESOURCES
^E:\INTELLIAN\PROJECTS\IFRAME\BRANCHES\I-VISION 2.1 (TRUNK)\TESTTASKCONTROLHANDLER\FORM1.RESX|E:\INTELLIAN\PROJECTS\IFRAME\BRANCHES\I-VISION 2.1 (TRUNK)\TESTTASKCONTROLHANDLER\PROPERTIES\RESOURCES.RESX
E:\INTELLIAN\PROJECTS\IFRAME\BRANCHES\I-VISION 2.1 (TRUNK)\TESTTASKCONTROLHANDLER\OBJ\X86\RELEASE\TESTTASKCONTROLHANDLER.FORM1.RESOURCES
E:\INTELLIAN\PROJECTS\IFRAME\BRANCHES\I-VISION 2.1 (TRUNK)\TESTTASKCONTROLHANDLER\OBJ\X86\RELEASE\TESTTASKCONTROLHANDLER.PROPERTIES.RESOURCES.RESOURCES
