^D:\INTELLIAN SYSTEMS\HSSHIN\PROJECTS\IFRAME\BRANCHES\I-VISION 2.1 (TRUNK)\DIGITALSIGNAGE.PLAYAGENT\CULTURES\RESOURCES.EN-US.RESX|D:\INTELLIAN SYSTEMS\HSSHIN\PROJECTS\IFRAME\BRANCHES\I-VISION 2.1 (TRUNK)\DIGITALSIGNAGE.PLAYAGENT\CULTURES\RESOURCES.KO-KR.RESX|D:\INTELLIAN SYSTEMS\HSSHIN\PROJECTS\IFRAME\BRANCHES\I-VISION 2.1 (TRUNK)\DIGITALSIGNAGE.PLAYAGENT\CULTURES\RESOURCES.RESX
D:\INTELLIAN SYSTEMS\HSSHIN\PROJECTS\IFRAME\BRANCHES\I-VISION 2.1 (TRUNK)\DIGITALSIGNAGE.PLAYAGENT\OBJ\RELEASE\DIGITALSIGNAGE.PLAYAGENT.CULTURES.RESOURCES.RESOURCES
D:\INTELLIAN SYSTEMS\HSSHIN\PROJECTS\IFRAME\BRANCHES\I-VISION 2.1 (TRUNK)\DIGITALSIGNAGE.PLAYAGENT\OBJ\RELEASE\DIGITALSIGNAGE.PLAYAGENT.CULTURES.RESOURCES.EN-US.RESOURCES
D:\INTELLIAN SYSTEMS\HSSHIN\PROJECTS\IFRAME\BRANCHES\I-VISION 2.1 (TRUNK)\DIGITALSIGNAGE.PLAYAGENT\OBJ\RELEASE\DIGITALSIGNAGE.PLAYAGENT.CULTURES.RESOURCES.KO-KR.RESOURCES
^E:\INTELLIAN\PROJECTS\IFRAME\BRANCHES\I-VISION 2.1 (TRUNK)\DIGITALSIGNAGE.PLAYAGENT\CULTURES\RESOURCES.EN-US.RESX|E:\INTELLIAN\PROJECTS\IFRAME\BRANCHES\I-VISION 2.1 (TRUNK)\DIGITALSIGNAGE.PLAYAGENT\CULTURES\RESOURCES.KO-KR.RESX|E:\INTELLIAN\PROJECTS\IFRAME\BRANCHES\I-VISION 2.1 (TRUNK)\DIGITALSIGNAGE.PLAYAGENT\CULTURES\RESOURCES.RESX
E:\INTELLIAN\PROJECTS\IFRAME\BRANCHES\I-VISION 2.1 (TRUNK)\DIGITALSIGNAGE.PLAYAGENT\OBJ\RELEASE\DIGITALSIGNAGE.PLAYAGENT.CULTURES.RESOURCES.EN-US.RESOURCES
E:\INTELLIAN\PROJECTS\IFRAME\BRANCHES\I-VISION 2.1 (TRUNK)\DIGITALSIGNAGE.PLAYAGENT\OBJ\RELEASE\DIGITALSIGNAGE.PLAYAGENT.CULTURES.RESOURCES.KO-KR.RESOURCES
E:\INTELLIAN\PROJECTS\IFRAME\BRANCHES\I-VISION 2.1 (TRUNK)\DIGITALSIGNAGE.PLAYAGENT\OBJ\RELEASE\DIGITALSIGNAGE.PLAYAGENT.CULTURES.RESOURCES.RESOURCES
