^D:\INTELLIAN SYSTEMS\HSSHIN\PROJECTS\IFRAME\BRANCHES\I-VISION 2.1 (TRUNK)\DIGITALSIGNAGE.TOUCHSCREENAGENT\PROPERTIES\RESOURCES.RESX
D:\INTELLIAN SYSTEMS\HSSHIN\PROJECTS\IFRAME\BRANCHES\I-VISION 2.1 (TRUNK)\DIGITALSIGNAGE.TOUCHSCREENAGENT\OBJ\RELEASE\DIGITALSIGNAGE.TOUCHSCREENAGENT.PROPERTIES.RESOURCES.RESOURCES
^E:\INTELLIAN\PROJECTS\IFRAME\BRANCHES\I-VISION 2.1 (TRUNK)\DIGITALSIGNAGE.TOUCHSCREENAGENT\PROPERTIES\RESOURCES.RESX
E:\INTELLIAN\PROJECTS\IFRAME\BRANCHES\I-VISION 2.1 (TRUNK)\DIGITALSIGNAGE.TOUCHSCREENAGENT\OBJ\RELEASE\DIGITALSIGNAGE.TOUCHSCREENAGENT.PROPERTIES.RESOURCES.RESOURCES
