﻿<?xml version="1.0" encoding="UTF-8"?>
<TestRun id="7b9814c4-9bae-48f8-a06a-8cde2408e2a0" name="Hyun-Sub@HSSHIN 2012-07-18 19:20:50" runUser="HSSHIN\Hyun-Sub" xmlns="http://microsoft.com/schemas/VisualStudio/TeamTest/2010">
  <TestSettings name="Default Test Settings" id="2106d202-3d51-4ad5-ac82-e22c6b74ca2c">
    <Deployment runDeploymentRoot="Hyun-Sub_HSSHIN 2012-07-18 19_20_50">
      <DeploymentItem filename="D:\Intellian Systems\hsshin\Projects\iFrame\branches\JeonBuk\DigitalSignage.ServerDatabase\bin\Release\DigitalSignage.ServerDatabase.dll" />
      <DeploymentItem filename="D:\Intellian Systems\hsshin\Projects\iFrame\branches\JeonBuk\DigitalSignage.Controls\bin\Release\DigitalSignage.Controls.dll" />
      <DeploymentItem filename="D:\Intellian Systems\hsshin\Projects\iFrame\branches\JeonBuk\NLog.dll" />
      <DeploymentItem filename="D:\Intellian Systems\hsshin\Projects\iFrame\branches\JeonBuk\DigitalSignage.Designer\bin\Release\WPFDesigner.exe" />
      <DeploymentItem filename="D:\Intellian Systems\hsshin\Projects\iFrame\branches\JeonBuk\Sloppycode.net\bin\Release\RssReader.dll" />
      <DeploymentItem filename="D:\Intellian Systems\hsshin\Projects\iFrame\branches\JeonBuk\WeatherReaderMVC\bin\Release\WeatherReaderMVC.dll" />
      <DeploymentItem filename="D:\Intellian Systems\hsshin\Projects\iFrame\branches\JeonBuk\DigitalSignage.Common\bin\Release\DigitalSignage.Common.dll" />
      <DeploymentItem filename="D:\Intellian Systems\hsshin\Projects\iFrame\branches\JeonBuk\DigitalSignage.SchedulerService\bin\Release\i-Vision.SchedulerService.exe" />
      <DeploymentItem filename="D:\Intellian Systems\hsshin\Projects\iFrame\branches\JeonBuk\DigitalSignage.Player\bin\Release\i-Vision.Player.exe" />
      <DeploymentItem filename="D:\Intellian Systems\hsshin\Projects\iFrame\branches\JeonBuk\3DTools\bin\Release\3DTools.dll" />
    </Deployment>
    <Execution>
      <TestTypeSpecific />
      <AgentRule name="Execution Agents">
      </AgentRule>
    </Execution>
  </TestSettings>
  <Times creation="2012-07-18T19:20:50.4531250+09:00" queuing="2012-07-18T19:20:54.5937500+09:00" start="2012-07-18T19:20:54.9687500+09:00" finish="2012-07-18T19:20:56.1250000+09:00" />
  <ResultSummary outcome="Error">
    <Counters total="3" executed="1" error="0" failed="0" timeout="0" aborted="1" inconclusive="0" passedButRunAborted="0" notRunnable="0" notExecuted="2" disconnected="0" warning="0" passed="0" completed="0" inProgress="0" pending="0" />
    <RunInfos>
      <RunInfo computerName="HSSHIN" outcome="Warning" timestamp="2012-07-18T19:20:52.6406250+09:00">
        <Text>Warning: conflict during test run deployment: deployment item 'd:\intellian systems\hsshin\projects\iframe\branches\jeonbuk\digitalsignage.autotests\bin\release\DigitalSignage.ServerDatabase.dll' directly or indirectly referenced by the test container 'd:\intellian systems\hsshin\projects\iframe\branches\jeonbuk\digitalsignage.autotests\bin\release\digitalsignage.autotests.dll' cannot be deployed to 'DigitalSignage.ServerDatabase.dll' because otherwise the file 'd:\intellian systems\hsshin\projects\iframe\branches\jeonbuk\digitalsignage.autotests\bin\release\DigitalSignage.ServerDatabase.dll' would overwrite deployment item 'D:\Intellian Systems\hsshin\Projects\iFrame\branches\JeonBuk\DigitalSignage.ServerDatabase\bin\Release\DigitalSignage.ServerDatabase.dll' directly or indirectly referenced by D:\Intellian Systems\hsshin\Projects\iFrame\branches\JeonBuk\DigitalSignage.AutoTests\bin\Release\DigitalSignage.AutoTests.dll.</Text>
      </RunInfo>
      <RunInfo computerName="HSSHIN" outcome="Warning" timestamp="2012-07-18T19:20:52.6406250+09:00">
        <Text>Warning: conflict during test run deployment: deployment item 'd:\intellian systems\hsshin\projects\iframe\branches\jeonbuk\digitalsignage.autotests\bin\release\DigitalSignage.Common.dll' directly or indirectly referenced by the test container 'd:\intellian systems\hsshin\projects\iframe\branches\jeonbuk\digitalsignage.autotests\bin\release\digitalsignage.autotests.dll' cannot be deployed to 'DigitalSignage.Common.dll' because otherwise the file 'd:\intellian systems\hsshin\projects\iframe\branches\jeonbuk\digitalsignage.autotests\bin\release\DigitalSignage.Common.dll' would overwrite deployment item 'D:\Intellian Systems\hsshin\Projects\iFrame\branches\JeonBuk\DigitalSignage.Common\bin\Release\DigitalSignage.Common.dll' directly or indirectly referenced by D:\Intellian Systems\hsshin\Projects\iFrame\branches\JeonBuk\DigitalSignage.AutoTests\bin\Release\DigitalSignage.AutoTests.dll.</Text>
      </RunInfo>
      <RunInfo computerName="HSSHIN" outcome="Error" timestamp="2012-07-18T19:20:56.0625000+09:00">
        <Text>Test host process exited unexpectedly.</Text>
      </RunInfo>
    </RunInfos>
  </ResultSummary>
  <TestDefinitions>
    <UnitTest name="DBConnectionTest2" storage="d:\intellian systems\hsshin\projects\iframe\branches\jeonbuk\digitalsignage.autotests\bin\release\digitalsignage.autotests.dll" id="d7bd1369-eeb1-0b99-be97-5cdab88b1e48">
      <Execution id="95cf6cd9-e7f3-476f-ace3-0346c9edb265" />
      <TestMethod codeBase="D:/Intellian Systems/hsshin/Projects/iFrame/branches/JeonBuk/DigitalSignage.AutoTests/bin/Release/DigitalSignage.AutoTests.DLL" adapterTypeName="Microsoft.VisualStudio.TestTools.TestTypes.Unit.UnitTestAdapter, Microsoft.VisualStudio.QualityTools.Tips.UnitTest.Adapter, Version=10.0.0.0, Culture=neutral, PublicKeyToken=b03f5f7f11d50a3a" className="DigitalSignage.AutoTests.DatabaseTest, DigitalSignage.AutoTests, Version=2.1.0.1038, Culture=neutral, PublicKeyToken=null" name="DBConnectionTest2" />
    </UnitTest>
    <UnitTest name="DownLoadTimeTest" storage="d:\intellian systems\hsshin\projects\iframe\branches\jeonbuk\digitalsignage.autotests\bin\release\digitalsignage.autotests.dll" id="34478074-17e6-ede0-e459-04bad733e3e2">
      <Execution id="548c89b5-71e8-4b67-9ffa-b2ab49c4c9cf" />
      <TestMethod codeBase="D:/Intellian Systems/hsshin/Projects/iFrame/branches/JeonBuk/DigitalSignage.AutoTests/bin/Release/DigitalSignage.AutoTests.DLL" adapterTypeName="Microsoft.VisualStudio.TestTools.TestTypes.Unit.UnitTestAdapter, Microsoft.VisualStudio.QualityTools.Tips.UnitTest.Adapter, Version=10.0.0.0, Culture=neutral, PublicKeyToken=b03f5f7f11d50a3a" className="DigitalSignage.AutoTests.DatabaseTest, DigitalSignage.AutoTests, Version=2.1.0.1038, Culture=neutral, PublicKeyToken=null" name="DownLoadTimeTest" />
    </UnitTest>
    <UnitTest name="DBConnectionTest" storage="d:\intellian systems\hsshin\projects\iframe\branches\jeonbuk\digitalsignage.autotests\bin\release\digitalsignage.autotests.dll" id="0bbef125-2bfb-b5bc-ae64-22eaf38a3e59">
      <Execution id="b6825e25-77ab-4fbe-891c-8a48eb626b46" />
      <TestMethod codeBase="D:/Intellian Systems/hsshin/Projects/iFrame/branches/JeonBuk/DigitalSignage.AutoTests/bin/Release/DigitalSignage.AutoTests.DLL" adapterTypeName="Microsoft.VisualStudio.TestTools.TestTypes.Unit.UnitTestAdapter, Microsoft.VisualStudio.QualityTools.Tips.UnitTest.Adapter, Version=10.0.0.0, Culture=neutral, PublicKeyToken=b03f5f7f11d50a3a" className="DigitalSignage.AutoTests.DatabaseTest, DigitalSignage.AutoTests, Version=2.1.0.1038, Culture=neutral, PublicKeyToken=null" name="DBConnectionTest" />
    </UnitTest>
  </TestDefinitions>
  <TestLists>
    <TestList name="Results Not in a List" id="8c84fa94-04c1-424b-9868-57a2d4851a1d" />
    <TestList name="All Loaded Results" id="19431567-8539-422a-85d7-44ee4e166bda" />
  </TestLists>
  <TestEntries>
    <TestEntry testId="0bbef125-2bfb-b5bc-ae64-22eaf38a3e59" executionId="b6825e25-77ab-4fbe-891c-8a48eb626b46" testListId="8c84fa94-04c1-424b-9868-57a2d4851a1d" />
    <TestEntry testId="d7bd1369-eeb1-0b99-be97-5cdab88b1e48" executionId="95cf6cd9-e7f3-476f-ace3-0346c9edb265" testListId="8c84fa94-04c1-424b-9868-57a2d4851a1d" />
    <TestEntry testId="34478074-17e6-ede0-e459-04bad733e3e2" executionId="548c89b5-71e8-4b67-9ffa-b2ab49c4c9cf" testListId="8c84fa94-04c1-424b-9868-57a2d4851a1d" />
  </TestEntries>
  <Results>
    <UnitTestResult executionId="b6825e25-77ab-4fbe-891c-8a48eb626b46" testId="0bbef125-2bfb-b5bc-ae64-22eaf38a3e59" testName="DBConnectionTest" computerName="HSSHIN" duration="00:00:00.9218750" startTime="2012-07-18T19:20:55.2031250+09:00" endTime="2012-07-18T19:20:56.1250000+09:00" testType="13cdc9d9-ddb5-4fa4-a97d-d965ccfc6d4b" outcome="Aborted" testListId="8c84fa94-04c1-424b-9868-57a2d4851a1d" relativeResultsDirectory="b6825e25-77ab-4fbe-891c-8a48eb626b46">
    </UnitTestResult>
    <UnitTestResult executionId="95cf6cd9-e7f3-476f-ace3-0346c9edb265" testId="d7bd1369-eeb1-0b99-be97-5cdab88b1e48" testName="DBConnectionTest2" computerName="HSSHIN" testType="13cdc9d9-ddb5-4fa4-a97d-d965ccfc6d4b" outcome="NotExecuted" testListId="8c84fa94-04c1-424b-9868-57a2d4851a1d" relativeResultsDirectory="95cf6cd9-e7f3-476f-ace3-0346c9edb265">
    </UnitTestResult>
    <UnitTestResult executionId="548c89b5-71e8-4b67-9ffa-b2ab49c4c9cf" testId="34478074-17e6-ede0-e459-04bad733e3e2" testName="DownLoadTimeTest" computerName="HSSHIN" testType="13cdc9d9-ddb5-4fa4-a97d-d965ccfc6d4b" outcome="NotExecuted" testListId="8c84fa94-04c1-424b-9868-57a2d4851a1d" relativeResultsDirectory="548c89b5-71e8-4b67-9ffa-b2ab49c4c9cf">
    </UnitTestResult>
  </Results>
</TestRun>