﻿<?xml version="1.0" encoding="UTF-8"?>
<TestRun id="c0caf5dc-54d6-4572-8d33-73b4fa6a4fea" name="Hyun-Sub@HSSHIN 2012-07-23 11:35:21" runUser="HSSHIN\Hyun-Sub" xmlns="http://microsoft.com/schemas/VisualStudio/TeamTest/2010">
  <TestSettings name="Default Test Settings" id="6f2debef-62bf-4e5b-80b8-7f86afa2d038">
    <Deployment runDeploymentRoot="Hyun-Sub_HSSHIN 2012-07-23 11_35_21">
      <DeploymentItem filename="D:\Intellian Systems\hsshin\Projects\iFrame\branches\JeonBuk\DigitalSignage.ServerDatabase\bin\Release\DigitalSignage.ServerDatabase.dll" />
      <DeploymentItem filename="D:\Intellian Systems\hsshin\Projects\iFrame\branches\JeonBuk\DigitalSignage.Controls\bin\Release\DigitalSignage.Controls.dll" />
      <DeploymentItem filename="D:\Intellian Systems\hsshin\Projects\iFrame\branches\JeonBuk\NLog.dll" />
      <DeploymentItem filename="D:\Intellian Systems\hsshin\Projects\iFrame\branches\JeonBuk\DigitalSignage.Designer\bin\Release\WPFDesigner.exe" />
      <DeploymentItem filename="D:\Intellian Systems\hsshin\Projects\iFrame\branches\JeonBuk\Sloppycode.net\bin\Release\RssReader.dll" />
      <DeploymentItem filename="D:\Intellian Systems\hsshin\Projects\iFrame\branches\JeonBuk\WeatherReaderMVC\bin\Release\WeatherReaderMVC.dll" />
      <DeploymentItem filename="D:\Intellian Systems\hsshin\Projects\iFrame\branches\JeonBuk\DigitalSignage.Common\bin\Release\DigitalSignage.Common.dll" />
      <DeploymentItem filename="D:\Intellian Systems\hsshin\Projects\iFrame\branches\JeonBuk\DigitalSignage.SchedulerService\bin\Release\i-Vision.SchedulerService.exe" />
      <DeploymentItem filename="D:\Intellian Systems\hsshin\Projects\iFrame\branches\JeonBuk\DigitalSignage.Player\bin\Release\i-Vision.Player.exe" />
      <DeploymentItem filename="D:\Intellian Systems\hsshin\Projects\iFrame\branches\JeonBuk\3DTools\bin\Release\3DTools.dll" />
    </Deployment>
    <Execution>
      <TestTypeSpecific />
      <AgentRule name="Execution Agents">
      </AgentRule>
    </Execution>
  </TestSettings>
  <Times creation="2012-07-23T11:35:21.9843750+09:00" queuing="2012-07-23T11:35:23.7812500+09:00" start="2012-07-23T11:35:23.9687500+09:00" finish="2012-07-23T11:35:57.4843750+09:00" />
  <ResultSummary outcome="Error">
    <Counters total="3" executed="1" error="0" failed="0" timeout="0" aborted="1" inconclusive="0" passedButRunAborted="0" notRunnable="0" notExecuted="2" disconnected="0" warning="0" passed="0" completed="0" inProgress="0" pending="0" />
    <RunInfos>
      <RunInfo computerName="HSSHIN" outcome="Error" timestamp="2012-07-23T11:35:57.4687500+09:00">
        <Text>Test host process exited unexpectedly.</Text>
      </RunInfo>
    </RunInfos>
  </ResultSummary>
  <TestDefinitions>
    <UnitTest name="DBConnectionTest2" storage="d:\intellian systems\hsshin\projects\iframe\branches\jeonbuk\digitalsignage.autotests\bin\release\digitalsignage.autotests.dll" id="d7bd1369-eeb1-0b99-be97-5cdab88b1e48">
      <Execution id="6bce2c18-2578-46aa-a117-a1fa4acc4054" />
      <TestMethod codeBase="D:/Intellian Systems/hsshin/Projects/iFrame/branches/JeonBuk/DigitalSignage.AutoTests/bin/Release/DigitalSignage.AutoTests.DLL" adapterTypeName="Microsoft.VisualStudio.TestTools.TestTypes.Unit.UnitTestAdapter, Microsoft.VisualStudio.QualityTools.Tips.UnitTest.Adapter, Version=10.0.0.0, Culture=neutral, PublicKeyToken=b03f5f7f11d50a3a" className="DigitalSignage.AutoTests.DatabaseTest, DigitalSignage.AutoTests, Version=2.1.0.1038, Culture=neutral, PublicKeyToken=null" name="DBConnectionTest2" />
    </UnitTest>
    <UnitTest name="DownLoadTimeTest" storage="d:\intellian systems\hsshin\projects\iframe\branches\jeonbuk\digitalsignage.autotests\bin\release\digitalsignage.autotests.dll" id="34478074-17e6-ede0-e459-04bad733e3e2">
      <Execution id="854cf4e6-1a4b-499f-901f-de3832bb89f3" />
      <TestMethod codeBase="D:/Intellian Systems/hsshin/Projects/iFrame/branches/JeonBuk/DigitalSignage.AutoTests/bin/Release/DigitalSignage.AutoTests.DLL" adapterTypeName="Microsoft.VisualStudio.TestTools.TestTypes.Unit.UnitTestAdapter, Microsoft.VisualStudio.QualityTools.Tips.UnitTest.Adapter, Version=10.0.0.0, Culture=neutral, PublicKeyToken=b03f5f7f11d50a3a" className="DigitalSignage.AutoTests.DatabaseTest, DigitalSignage.AutoTests, Version=2.1.0.1038, Culture=neutral, PublicKeyToken=null" name="DownLoadTimeTest" />
    </UnitTest>
    <UnitTest name="DBConnectionTest" storage="d:\intellian systems\hsshin\projects\iframe\branches\jeonbuk\digitalsignage.autotests\bin\release\digitalsignage.autotests.dll" id="0bbef125-2bfb-b5bc-ae64-22eaf38a3e59">
      <Execution id="e1ab04c9-b7c5-4045-aed9-ee8a0d92c2aa" />
      <TestMethod codeBase="D:/Intellian Systems/hsshin/Projects/iFrame/branches/JeonBuk/DigitalSignage.AutoTests/bin/Release/DigitalSignage.AutoTests.DLL" adapterTypeName="Microsoft.VisualStudio.TestTools.TestTypes.Unit.UnitTestAdapter, Microsoft.VisualStudio.QualityTools.Tips.UnitTest.Adapter, Version=10.0.0.0, Culture=neutral, PublicKeyToken=b03f5f7f11d50a3a" className="DigitalSignage.AutoTests.DatabaseTest, DigitalSignage.AutoTests, Version=2.1.0.1038, Culture=neutral, PublicKeyToken=null" name="DBConnectionTest" />
    </UnitTest>
  </TestDefinitions>
  <TestLists>
    <TestList name="Results Not in a List" id="8c84fa94-04c1-424b-9868-57a2d4851a1d" />
    <TestList name="All Loaded Results" id="19431567-8539-422a-85d7-44ee4e166bda" />
  </TestLists>
  <TestEntries>
    <TestEntry testId="0bbef125-2bfb-b5bc-ae64-22eaf38a3e59" executionId="e1ab04c9-b7c5-4045-aed9-ee8a0d92c2aa" testListId="8c84fa94-04c1-424b-9868-57a2d4851a1d" />
    <TestEntry testId="d7bd1369-eeb1-0b99-be97-5cdab88b1e48" executionId="6bce2c18-2578-46aa-a117-a1fa4acc4054" testListId="8c84fa94-04c1-424b-9868-57a2d4851a1d" />
    <TestEntry testId="34478074-17e6-ede0-e459-04bad733e3e2" executionId="854cf4e6-1a4b-499f-901f-de3832bb89f3" testListId="8c84fa94-04c1-424b-9868-57a2d4851a1d" />
  </TestEntries>
  <Results>
    <UnitTestResult executionId="e1ab04c9-b7c5-4045-aed9-ee8a0d92c2aa" testId="0bbef125-2bfb-b5bc-ae64-22eaf38a3e59" testName="DBConnectionTest" computerName="HSSHIN" duration="00:00:33.3750000" startTime="2012-07-23T11:35:24.1093750+09:00" endTime="2012-07-23T11:35:57.4843750+09:00" testType="13cdc9d9-ddb5-4fa4-a97d-d965ccfc6d4b" outcome="Aborted" testListId="8c84fa94-04c1-424b-9868-57a2d4851a1d" relativeResultsDirectory="e1ab04c9-b7c5-4045-aed9-ee8a0d92c2aa">
    </UnitTestResult>
    <UnitTestResult executionId="6bce2c18-2578-46aa-a117-a1fa4acc4054" testId="d7bd1369-eeb1-0b99-be97-5cdab88b1e48" testName="DBConnectionTest2" computerName="HSSHIN" testType="13cdc9d9-ddb5-4fa4-a97d-d965ccfc6d4b" outcome="NotExecuted" testListId="8c84fa94-04c1-424b-9868-57a2d4851a1d" relativeResultsDirectory="6bce2c18-2578-46aa-a117-a1fa4acc4054">
    </UnitTestResult>
    <UnitTestResult executionId="854cf4e6-1a4b-499f-901f-de3832bb89f3" testId="34478074-17e6-ede0-e459-04bad733e3e2" testName="DownLoadTimeTest" computerName="HSSHIN" testType="13cdc9d9-ddb5-4fa4-a97d-d965ccfc6d4b" outcome="NotExecuted" testListId="8c84fa94-04c1-424b-9868-57a2d4851a1d" relativeResultsDirectory="854cf4e6-1a4b-499f-901f-de3832bb89f3">
    </UnitTestResult>
  </Results>
</TestRun>