﻿<?xml version="1.0" encoding="UTF-8"?>
<TestRun id="1d69d1a6-d542-4e5e-a591-c8ce0d0e56f1" name="Hyun-Sub@HSSHIN 2012-06-26 09:57:23" runUser="HSSHIN\Hyun-Sub" xmlns="http://microsoft.com/schemas/VisualStudio/TeamTest/2010">
  <TestSettings name="Default Test Settings" id="0161739c-a0f2-44b0-a62e-1dbe9bdb1135">
    <Deployment runDeploymentRoot="Hyun-Sub_HSSHIN 2012-06-26 09_57_23">
      <DeploymentItem filename="D:\Intellian Systems\hsshin\Projects\iFrame\branches\JeonBuk\DigitalSignage.ServerDatabase\bin\Release\DigitalSignage.ServerDatabase.dll" />
      <DeploymentItem filename="D:\Intellian Systems\hsshin\Projects\iFrame\branches\JeonBuk\DigitalSignage.Controls\bin\Release\DigitalSignage.Controls.dll" />
      <DeploymentItem filename="D:\Intellian Systems\hsshin\Projects\iFrame\branches\JeonBuk\NLog.dll" />
      <DeploymentItem filename="D:\Intellian Systems\hsshin\Projects\iFrame\branches\JeonBuk\DigitalSignage.Designer\bin\Release\WPFDesigner.exe" />
      <DeploymentItem filename="D:\Intellian Systems\hsshin\Projects\iFrame\branches\JeonBuk\Sloppycode.net\bin\Release\RssReader.dll" />
      <DeploymentItem filename="D:\Intellian Systems\hsshin\Projects\iFrame\branches\JeonBuk\WeatherReaderMVC\bin\Release\WeatherReaderMVC.dll" />
      <DeploymentItem filename="D:\Intellian Systems\hsshin\Projects\iFrame\branches\JeonBuk\DigitalSignage.Common\bin\Release\DigitalSignage.Common.dll" />
      <DeploymentItem filename="D:\Intellian Systems\hsshin\Projects\iFrame\branches\JeonBuk\DigitalSignage.SchedulerService\bin\Release\i-Vision.SchedulerService.exe" />
      <DeploymentItem filename="D:\Intellian Systems\hsshin\Projects\iFrame\branches\JeonBuk\DigitalSignage.Player\bin\Release\i-Vision.Player.exe" />
      <DeploymentItem filename="D:\Intellian Systems\hsshin\Projects\iFrame\branches\JeonBuk\3DTools\bin\Release\3DTools.dll" />
    </Deployment>
    <Execution>
      <TestTypeSpecific />
      <AgentRule name="Execution Agents">
      </AgentRule>
    </Execution>
  </TestSettings>
  <Times creation="2012-06-26T09:57:23.9843750+09:00" queuing="2012-06-26T09:57:26.5937500+09:00" start="2012-06-26T09:57:26.7968750+09:00" finish="2012-06-26T09:57:36.5468750+09:00" />
  <ResultSummary outcome="Error">
    <Counters total="3" executed="1" error="0" failed="0" timeout="0" aborted="1" inconclusive="0" passedButRunAborted="0" notRunnable="0" notExecuted="2" disconnected="0" warning="0" passed="0" completed="0" inProgress="0" pending="0" />
    <RunInfos>
      <RunInfo computerName="HSSHIN" outcome="Error" timestamp="2012-06-26T09:57:36.5312500+09:00">
        <Text>Test host process exited unexpectedly.</Text>
      </RunInfo>
    </RunInfos>
  </ResultSummary>
  <TestDefinitions>
    <UnitTest name="DBConnectionTest2" storage="d:\intellian systems\hsshin\projects\iframe\branches\jeonbuk\digitalsignage.autotests\bin\release\digitalsignage.autotests.dll" id="d7bd1369-eeb1-0b99-be97-5cdab88b1e48">
      <Execution id="472640c0-28e1-4437-9a99-726815de821e" />
      <TestMethod codeBase="D:/Intellian Systems/hsshin/Projects/iFrame/branches/JeonBuk/DigitalSignage.AutoTests/bin/Release/DigitalSignage.AutoTests.DLL" adapterTypeName="Microsoft.VisualStudio.TestTools.TestTypes.Unit.UnitTestAdapter, Microsoft.VisualStudio.QualityTools.Tips.UnitTest.Adapter, Version=10.0.0.0, Culture=neutral, PublicKeyToken=b03f5f7f11d50a3a" className="DigitalSignage.AutoTests.DatabaseTest, DigitalSignage.AutoTests, Version=2.1.0.1038, Culture=neutral, PublicKeyToken=null" name="DBConnectionTest2" />
    </UnitTest>
    <UnitTest name="DownLoadTimeTest" storage="d:\intellian systems\hsshin\projects\iframe\branches\jeonbuk\digitalsignage.autotests\bin\release\digitalsignage.autotests.dll" id="34478074-17e6-ede0-e459-04bad733e3e2">
      <Execution id="8327fd28-2cb8-4d2b-8340-58fbcd8395bd" />
      <TestMethod codeBase="D:/Intellian Systems/hsshin/Projects/iFrame/branches/JeonBuk/DigitalSignage.AutoTests/bin/Release/DigitalSignage.AutoTests.DLL" adapterTypeName="Microsoft.VisualStudio.TestTools.TestTypes.Unit.UnitTestAdapter, Microsoft.VisualStudio.QualityTools.Tips.UnitTest.Adapter, Version=10.0.0.0, Culture=neutral, PublicKeyToken=b03f5f7f11d50a3a" className="DigitalSignage.AutoTests.DatabaseTest, DigitalSignage.AutoTests, Version=2.1.0.1038, Culture=neutral, PublicKeyToken=null" name="DownLoadTimeTest" />
    </UnitTest>
    <UnitTest name="DBConnectionTest" storage="d:\intellian systems\hsshin\projects\iframe\branches\jeonbuk\digitalsignage.autotests\bin\release\digitalsignage.autotests.dll" id="0bbef125-2bfb-b5bc-ae64-22eaf38a3e59">
      <Execution id="a94e5930-9c03-4050-9972-b2f90eac6583" />
      <TestMethod codeBase="D:/Intellian Systems/hsshin/Projects/iFrame/branches/JeonBuk/DigitalSignage.AutoTests/bin/Release/DigitalSignage.AutoTests.DLL" adapterTypeName="Microsoft.VisualStudio.TestTools.TestTypes.Unit.UnitTestAdapter, Microsoft.VisualStudio.QualityTools.Tips.UnitTest.Adapter, Version=10.0.0.0, Culture=neutral, PublicKeyToken=b03f5f7f11d50a3a" className="DigitalSignage.AutoTests.DatabaseTest, DigitalSignage.AutoTests, Version=2.1.0.1038, Culture=neutral, PublicKeyToken=null" name="DBConnectionTest" />
    </UnitTest>
  </TestDefinitions>
  <TestLists>
    <TestList name="Results Not in a List" id="8c84fa94-04c1-424b-9868-57a2d4851a1d" />
    <TestList name="All Loaded Results" id="19431567-8539-422a-85d7-44ee4e166bda" />
  </TestLists>
  <TestEntries>
    <TestEntry testId="0bbef125-2bfb-b5bc-ae64-22eaf38a3e59" executionId="a94e5930-9c03-4050-9972-b2f90eac6583" testListId="8c84fa94-04c1-424b-9868-57a2d4851a1d" />
    <TestEntry testId="d7bd1369-eeb1-0b99-be97-5cdab88b1e48" executionId="472640c0-28e1-4437-9a99-726815de821e" testListId="8c84fa94-04c1-424b-9868-57a2d4851a1d" />
    <TestEntry testId="34478074-17e6-ede0-e459-04bad733e3e2" executionId="8327fd28-2cb8-4d2b-8340-58fbcd8395bd" testListId="8c84fa94-04c1-424b-9868-57a2d4851a1d" />
  </TestEntries>
  <Results>
    <UnitTestResult executionId="a94e5930-9c03-4050-9972-b2f90eac6583" testId="0bbef125-2bfb-b5bc-ae64-22eaf38a3e59" testName="DBConnectionTest" computerName="HSSHIN" duration="00:00:09.5312500" startTime="2012-06-26T09:57:27.0000000+09:00" endTime="2012-06-26T09:57:36.5312500+09:00" testType="13cdc9d9-ddb5-4fa4-a97d-d965ccfc6d4b" outcome="Aborted" testListId="8c84fa94-04c1-424b-9868-57a2d4851a1d" relativeResultsDirectory="a94e5930-9c03-4050-9972-b2f90eac6583">
    </UnitTestResult>
    <UnitTestResult executionId="472640c0-28e1-4437-9a99-726815de821e" testId="d7bd1369-eeb1-0b99-be97-5cdab88b1e48" testName="DBConnectionTest2" computerName="HSSHIN" testType="13cdc9d9-ddb5-4fa4-a97d-d965ccfc6d4b" outcome="NotExecuted" testListId="8c84fa94-04c1-424b-9868-57a2d4851a1d" relativeResultsDirectory="472640c0-28e1-4437-9a99-726815de821e">
    </UnitTestResult>
    <UnitTestResult executionId="8327fd28-2cb8-4d2b-8340-58fbcd8395bd" testId="34478074-17e6-ede0-e459-04bad733e3e2" testName="DownLoadTimeTest" computerName="HSSHIN" testType="13cdc9d9-ddb5-4fa4-a97d-d965ccfc6d4b" outcome="NotExecuted" testListId="8c84fa94-04c1-424b-9868-57a2d4851a1d" relativeResultsDirectory="8327fd28-2cb8-4d2b-8340-58fbcd8395bd">
    </UnitTestResult>
  </Results>
</TestRun>