^E:\INTELLIAN SYSTEMS\HSSHIN\PROJECTS\IFRAME\BRANCHES\JEONBUK\I-VISION.TOUCHDESIGNER\IVISIONTOUCHELEMENTPROPERTY\PROPERTIES\RESOURCES.RESX
E:\INTELLIAN SYSTEMS\HSSHIN\PROJECTS\IFRAME\BRANCHES\JEONBUK\I-VISION.TOUCHDESIGNER\IVISIONTOUCHELEMENTPROPERTY\OBJ\X86\RELEASE\IVISIONTOUCHELEMENTPROPERTY.PROPERTIES.RESOURCES.RESOURCES
^D:\INTELLIAN SYSTEMS\HSSHIN\PROJECTS\IFRAME\BRANCHES\JEONBUK\I-VISION.TOUCHDESIGNER\IVISIONTOUCHELEMENTPROPERTY\PROPERTIES\RESOURCES.RESX
D:\INTELLIAN SYSTEMS\HSSHIN\PROJECTS\IFRAME\BRANCHES\JEONBUK\I-VISION.TOUCHDESIGNER\IVISIONTOUCHELEMENTPROPERTY\OBJ\X86\RELEASE\IVISIONTOUCHELEMENTPROPERTY.PROPERTIES.RESOURCES.RESOURCES
^D:\INTELLIAN SYSTEMS\HSSHIN\PROJECTS\IFRAME\BRANCHES\I-VISION 2.1 (TRUNK)\I-VISION.TOUCHDESIGNER\IVISIONTOUCHELEMENTPROPERTY\PROPERTIES\RESOURCES.RESX
D:\INTELLIAN SYSTEMS\HSSHIN\PROJECTS\IFRAME\BRANCHES\I-VISION 2.1 (TRUNK)\I-VISION.TOUCHDESIGNER\IVISIONTOUCHELEMENTPROPERTY\OBJ\X86\RELEASE\IVISIONTOUCHELEMENTPROPERTY.PROPERTIES.RESOURCES.RESOURCES
