^D:\INTELLIAN SYSTEMS\HSSHIN\PROJECTS\IFRAME\BRANCHES\I-VISION 2.1 (TRUNK)\FARSILIBRARY.FX.WIN\RESOURCES\STRINGS.RESX
^D:\INTELLIAN SYSTEMS\HSSHIN\PROJECTS\IFRAME\BRANCHES\I-VISION 2.1 (TRUNK)\FARSILIBRARY.FX.WIN\RESOURCES\STRINGS.KO-KR.RESX
^E:\INTELLIAN\PROJECTS\IFRAME\BRANCHES\I-VISION 2.1 (TRUNK)\FARSILIBRARY.FX.WIN\RESOURCES\STRINGS.RESX
^E:\INTELLIAN\PROJECTS\IFRAME\BRANCHES\I-VISION 2.1 (TRUNK)\FARSILIBRARY.FX.WIN\RESOURCES\STRINGS.KO-KR.RESX
