^D:\INTELLIAN SYSTEMS\HSSHIN\PROJECTS\IFRAME\BRANCHES\I-VISION 2.1 (TRUNK)\DIGITALSIGNAGE.SCHEDULER\COMPONENTS\SPREADSHEET.RESX
^D:\INTELLIAN SYSTEMS\HSSHIN\PROJECTS\IFRAME\BRANCHES\I-VISION 2.1 (TRUNK)\DIGITALSIGNAGE.SCHEDULER\CULTURES\RESOURCES.RESX
C:\WINDOWS\ASSEMBLY\PUBPOL62.DAT
D:\INTELLIAN SYSTEMS\HSSHIN\PROJECTS\IFRAME\BRANCHES\I-VISION 2.1 (TRUNK)\DIGITALSIGNAGE.SCHEDULER\IMAGES\FTPOFF.PNG
D:\INTELLIAN SYSTEMS\HSSHIN\PROJECTS\IFRAME\BRANCHES\I-VISION 2.1 (TRUNK)\DIGITALSIGNAGE.SCHEDULER\IMAGES\FTP.PNG
D:\INTELLIAN SYSTEMS\HSSHIN\PROJECTS\IFRAME\BRANCHES\I-VISION 2.1 (TRUNK)\DIGITALSIGNAGE.SCHEDULER\IMAGES\NOTFOUND.PNG
D:\INTELLIAN SYSTEMS\HSSHIN\PROJECTS\IFRAME\BRANCHES\I-VISION 2.1 (TRUNK)\DIGITALSIGNAGE.SCHEDULER\IMAGES\SERVICE.PNG
D:\INTELLIAN SYSTEMS\HSSHIN\PROJECTS\IFRAME\BRANCHES\I-VISION 2.1 (TRUNK)\DIGITALSIGNAGE.SCHEDULER\IMAGES\TEXTALIGNCENTER.PNG
D:\INTELLIAN SYSTEMS\HSSHIN\PROJECTS\IFRAME\BRANCHES\I-VISION 2.1 (TRUNK)\DIGITALSIGNAGE.SCHEDULER\IMAGES\TEXTALIGNLEFT.PNG
D:\INTELLIAN SYSTEMS\HSSHIN\PROJECTS\IFRAME\BRANCHES\I-VISION 2.1 (TRUNK)\DIGITALSIGNAGE.SCHEDULER\IMAGES\TEXTALIGNRIGHT.PNG
D:\INTELLIAN SYSTEMS\HSSHIN\PROJECTS\IFRAME\BRANCHES\I-VISION 2.1 (TRUNK)\DIGITALSIGNAGE.SCHEDULER\IMAGES\ICON_16X16.PNG
D:\INTELLIAN SYSTEMS\HSSHIN\PROJECTS\IFRAME\BRANCHES\I-VISION 2.1 (TRUNK)\DIGITALSIGNAGE.SCHEDULER\IMAGES\ICON16_ADD_GROUP.PNG
D:\INTELLIAN SYSTEMS\HSSHIN\PROJECTS\IFRAME\BRANCHES\I-VISION 2.1 (TRUNK)\DIGITALSIGNAGE.SCHEDULER\IMAGES\ICON16_ADD_PLAYER.PNG
D:\INTELLIAN SYSTEMS\HSSHIN\PROJECTS\IFRAME\BRANCHES\I-VISION 2.1 (TRUNK)\DIGITALSIGNAGE.SCHEDULER\IMAGES\ICON16_ADD_PROGRAM_TASK.PNG
D:\INTELLIAN SYSTEMS\HSSHIN\PROJECTS\IFRAME\BRANCHES\I-VISION 2.1 (TRUNK)\DIGITALSIGNAGE.SCHEDULER\IMAGES\ICON16_ADD_SUBTITLE_TASK.PNG
D:\INTELLIAN SYSTEMS\HSSHIN\PROJECTS\IFRAME\BRANCHES\I-VISION 2.1 (TRUNK)\DIGITALSIGNAGE.SCHEDULER\IMAGES\ICON16_DELETE_GROUP.PNG
D:\INTELLIAN SYSTEMS\HSSHIN\PROJECTS\IFRAME\BRANCHES\I-VISION 2.1 (TRUNK)\DIGITALSIGNAGE.SCHEDULER\IMAGES\ICON16_DELETE_PLAYER.PNG
D:\INTELLIAN SYSTEMS\HSSHIN\PROJECTS\IFRAME\BRANCHES\I-VISION 2.1 (TRUNK)\DIGITALSIGNAGE.SCHEDULER\IMAGES\ICON16_DELETE_TASK.PNG
D:\INTELLIAN SYSTEMS\HSSHIN\PROJECTS\IFRAME\BRANCHES\I-VISION 2.1 (TRUNK)\DIGITALSIGNAGE.SCHEDULER\IMAGES\ICON16_EDIT_GROUP.PNG
D:\INTELLIAN SYSTEMS\HSSHIN\PROJECTS\IFRAME\BRANCHES\I-VISION 2.1 (TRUNK)\DIGITALSIGNAGE.SCHEDULER\IMAGES\ICON16_EDIT_PLAYER.PNG
D:\INTELLIAN SYSTEMS\HSSHIN\PROJECTS\IFRAME\BRANCHES\I-VISION 2.1 (TRUNK)\DIGITALSIGNAGE.SCHEDULER\IMAGES\ICON16_EDIT_TASK.PNG
D:\INTELLIAN SYSTEMS\HSSHIN\PROJECTS\IFRAME\BRANCHES\I-VISION 2.1 (TRUNK)\DIGITALSIGNAGE.SCHEDULER\IMAGES\ICON_STATUS_OFF.PNG
D:\INTELLIAN SYSTEMS\HSSHIN\PROJECTS\IFRAME\BRANCHES\I-VISION 2.1 (TRUNK)\DIGITALSIGNAGE.SCHEDULER\IMAGES\ICON_STATUS_ON.PNG
D:\INTELLIAN SYSTEMS\HSSHIN\PROJECTS\IFRAME\BRANCHES\I-VISION 2.1 (TRUNK)\DIGITALSIGNAGE.SCHEDULER\IMAGES\ICON16_TASK_WIZARD.PNG
D:\INTELLIAN SYSTEMS\HSSHIN\PROJECTS\IFRAME\BRANCHES\I-VISION 2.1 (TRUNK)\DIGITALSIGNAGE.SCHEDULER\IMAGES\ICON16_USER_MANAGEMENT.PNG
D:\INTELLIAN SYSTEMS\HSSHIN\PROJECTS\IFRAME\BRANCHES\I-VISION 2.1 (TRUNK)\DIGITALSIGNAGE.SCHEDULER\IMAGES\I_VISION_16X16.PNG
D:\INTELLIAN SYSTEMS\HSSHIN\PROJECTS\IFRAME\BRANCHES\I-VISION 2.1 (TRUNK)\DIGITALSIGNAGE.SCHEDULER\IMAGES\I_VISION_27X27.PNG
D:\INTELLIAN SYSTEMS\HSSHIN\PROJECTS\IFRAME\BRANCHES\I-VISION 2.1 (TRUNK)\DIGITALSIGNAGE.SCHEDULER\IMAGES\16RE-SCHEDULE.PNG
D:\INTELLIAN SYSTEMS\HSSHIN\PROJECTS\IFRAME\BRANCHES\I-VISION 2.1 (TRUNK)\DIGITALSIGNAGE.SCHEDULER\IMAGES\NETWORK-GROUP.PNG
D:\INTELLIAN SYSTEMS\HSSHIN\PROJECTS\IFRAME\BRANCHES\I-VISION 2.1 (TRUNK)\DIGITALSIGNAGE.SCHEDULER\IMAGES\PLAYER-GROUP.PNG
D:\INTELLIAN SYSTEMS\HSSHIN\PROJECTS\IFRAME\BRANCHES\I-VISION 2.1 (TRUNK)\DIGITALSIGNAGE.SCHEDULER\IMAGES\ZOOM-IN16.PNG
D:\INTELLIAN SYSTEMS\HSSHIN\PROJECTS\IFRAME\BRANCHES\I-VISION 2.1 (TRUNK)\DIGITALSIGNAGE.SCHEDULER\IMAGES\DELETE.PNG
D:\INTELLIAN SYSTEMS\HSSHIN\PROJECTS\IFRAME\BRANCHES\I-VISION 2.1 (TRUNK)\DIGITALSIGNAGE.SCHEDULER\IMAGES\PLUS.PNG
D:\INTELLIAN SYSTEMS\HSSHIN\PROJECTS\IFRAME\BRANCHES\I-VISION 2.1 (TRUNK)\DIGITALSIGNAGE.SCHEDULER\IMAGES\SAVE.PNG
D:\INTELLIAN SYSTEMS\HSSHIN\PROJECTS\IFRAME\BRANCHES\I-VISION 2.1 (TRUNK)\DIGITALSIGNAGE.SCHEDULER\IMAGES\ICON_EXPORT.PNG
D:\INTELLIAN SYSTEMS\HSSHIN\PROJECTS\IFRAME\BRANCHES\I-VISION 2.1 (TRUNK)\DIGITALSIGNAGE.SCHEDULER\IMAGES\ICON_PREVIEW.PNG
D:\INTELLIAN SYSTEMS\HSSHIN\PROJECTS\IFRAME\BRANCHES\I-VISION 2.1 (TRUNK)\DIGITALSIGNAGE.SCHEDULER\IMAGES\16LIMITREGISTRATION.PNG
D:\INTELLIAN SYSTEMS\HSSHIN\PROJECTS\IFRAME\BRANCHES\I-VISION 2.1 (TRUNK)\DIGITALSIGNAGE.SCHEDULER\IMAGES\16LIMITREMOVE.PNG
D:\INTELLIAN SYSTEMS\HSSHIN\PROJECTS\IFRAME\BRANCHES\I-VISION 2.1 (TRUNK)\DIGITALSIGNAGE.SCHEDULER\IMAGES\ALL-SELECT.PNG
D:\INTELLIAN SYSTEMS\HSSHIN\PROJECTS\IFRAME\BRANCHES\I-VISION 2.1 (TRUNK)\DIGITALSIGNAGE.SCHEDULER\IMAGES\BRING-TO-FRONT.PNG
D:\INTELLIAN SYSTEMS\HSSHIN\PROJECTS\IFRAME\BRANCHES\I-VISION 2.1 (TRUNK)\DIGITALSIGNAGE.SCHEDULER\IMAGES\ICON16_ADD_CONTROL_TASK.PNG
D:\INTELLIAN SYSTEMS\HSSHIN\PROJECTS\IFRAME\BRANCHES\I-VISION 2.1 (TRUNK)\DIGITALSIGNAGE.SCHEDULER\IMAGES\AMT.PNG
D:\INTELLIAN SYSTEMS\HSSHIN\PROJECTS\IFRAME\BRANCHES\I-VISION 2.1 (TRUNK)\DIGITALSIGNAGE.SCHEDULER\IMAGES\WOL.PNG
D:\INTELLIAN SYSTEMS\HSSHIN\PROJECTS\IFRAME\BRANCHES\I-VISION 2.1 (TRUNK)\DIGITALSIGNAGE.SCHEDULER\IMAGES\POWER_OFF.PNG
D:\INTELLIAN SYSTEMS\HSSHIN\PROJECTS\IFRAME\BRANCHES\I-VISION 2.1 (TRUNK)\DIGITALSIGNAGE.SCHEDULER\IMAGES\POWER_ON.PNG
D:\INTELLIAN SYSTEMS\HSSHIN\PROJECTS\IFRAME\BRANCHES\I-VISION 2.1 (TRUNK)\DIGITALSIGNAGE.SCHEDULER\IMAGES\POWER_RESTART.PNG
D:\INTELLIAN SYSTEMS\HSSHIN\PROJECTS\IFRAME\BRANCHES\I-VISION 2.1 (TRUNK)\DIGITALSIGNAGE.SCHEDULER\IMAGES\16_LOG_SCHEDULE.PNG
D:\INTELLIAN SYSTEMS\HSSHIN\PROJECTS\IFRAME\BRANCHES\I-VISION 2.1 (TRUNK)\DIGITALSIGNAGE.SCHEDULER\IMAGES\16_LOG_VIEW.PNG
D:\INTELLIAN SYSTEMS\HSSHIN\PROJECTS\IFRAME\BRANCHES\I-VISION 2.1 (TRUNK)\DIGITALSIGNAGE.SCHEDULER\IMAGES\16_REPORT_VIEW.PNG
D:\INTELLIAN SYSTEMS\HSSHIN\PROJECTS\IFRAME\BRANCHES\I-VISION 2.1 (TRUNK)\DIGITALSIGNAGE.SCHEDULER\IMAGES\TIMELINE_AD.PNG
D:\INTELLIAN SYSTEMS\HSSHIN\PROJECTS\IFRAME\BRANCHES\I-VISION 2.1 (TRUNK)\DIGITALSIGNAGE.SCHEDULER\IMAGES\TIMELINE_EVENT.PNG
D:\INTELLIAN SYSTEMS\HSSHIN\PROJECTS\IFRAME\BRANCHES\I-VISION 2.1 (TRUNK)\DIGITALSIGNAGE.SCHEDULER\IMAGES\TIMELINE_EVENTONLY.PNG
D:\INTELLIAN SYSTEMS\HSSHIN\PROJECTS\IFRAME\BRANCHES\I-VISION 2.1 (TRUNK)\DIGITALSIGNAGE.SCHEDULER\IMAGES\TIMELINE_ICONLIST.PNG
D:\INTELLIAN SYSTEMS\HSSHIN\PROJECTS\IFRAME\BRANCHES\I-VISION 2.1 (TRUNK)\DIGITALSIGNAGE.SCHEDULER\IMAGES\TIMELINE_ONLY.PNG
D:\INTELLIAN SYSTEMS\HSSHIN\PROJECTS\IFRAME\BRANCHES\I-VISION 2.1 (TRUNK)\DIGITALSIGNAGE.SCHEDULER\IMAGES\ICON_STATUS_NONE.PNG
D:\INTELLIAN SYSTEMS\HSSHIN\PROJECTS\IFRAME\BRANCHES\I-VISION 2.1 (TRUNK)\DIGITALSIGNAGE.SCHEDULER\RESOURCES\TIMELINE_TOUCH.PNG
^D:\INTELLIAN SYSTEMS\HSSHIN\PROJECTS\IFRAME\BRANCHES\I-VISION 2.1 (TRUNK)\DIGITALSIGNAGE.SCHEDULER\CULTURES\RESOURCES.KO-KR.RESX
D:\INTELLIAN SYSTEMS\HSSHIN\PROJECTS\IFRAME\BRANCHES\I-VISION 2.1 (TRUNK)\DIGITALSIGNAGE.SCHEDULER\IMAGES\FTPOFF.PNG
D:\INTELLIAN SYSTEMS\HSSHIN\PROJECTS\IFRAME\BRANCHES\I-VISION 2.1 (TRUNK)\DIGITALSIGNAGE.SCHEDULER\IMAGES\FTP.PNG
D:\INTELLIAN SYSTEMS\HSSHIN\PROJECTS\IFRAME\BRANCHES\I-VISION 2.1 (TRUNK)\DIGITALSIGNAGE.SCHEDULER\IMAGES\NOTFOUND.PNG
D:\INTELLIAN SYSTEMS\HSSHIN\PROJECTS\IFRAME\BRANCHES\I-VISION 2.1 (TRUNK)\DIGITALSIGNAGE.SCHEDULER\IMAGES\SERVICE.PNG
D:\INTELLIAN SYSTEMS\HSSHIN\PROJECTS\IFRAME\BRANCHES\I-VISION 2.1 (TRUNK)\DIGITALSIGNAGE.SCHEDULER\IMAGES\TEXTALIGNCENTER.PNG
D:\INTELLIAN SYSTEMS\HSSHIN\PROJECTS\IFRAME\BRANCHES\I-VISION 2.1 (TRUNK)\DIGITALSIGNAGE.SCHEDULER\IMAGES\TEXTALIGNLEFT.PNG
D:\INTELLIAN SYSTEMS\HSSHIN\PROJECTS\IFRAME\BRANCHES\I-VISION 2.1 (TRUNK)\DIGITALSIGNAGE.SCHEDULER\IMAGES\TEXTALIGNRIGHT.PNG
D:\INTELLIAN SYSTEMS\HSSHIN\PROJECTS\IFRAME\BRANCHES\I-VISION 2.1 (TRUNK)\DIGITALSIGNAGE.SCHEDULER\CULTURES\RESOURCES.KO-KR.DESIGNER.CS
^D:\INTELLIAN SYSTEMS\HSSHIN\PROJECTS\IFRAME\BRANCHES\I-VISION 2.1 (TRUNK)\DIGITALSIGNAGE.SCHEDULER\CULTURES\RESOURCES.EN-US.RESX
D:\INTELLIAN SYSTEMS\HSSHIN\PROJECTS\IFRAME\BRANCHES\I-VISION 2.1 (TRUNK)\DIGITALSIGNAGE.SCHEDULER\IMAGES\FTPOFF.PNG
D:\INTELLIAN SYSTEMS\HSSHIN\PROJECTS\IFRAME\BRANCHES\I-VISION 2.1 (TRUNK)\DIGITALSIGNAGE.SCHEDULER\IMAGES\FTP.PNG
D:\INTELLIAN SYSTEMS\HSSHIN\PROJECTS\IFRAME\BRANCHES\I-VISION 2.1 (TRUNK)\DIGITALSIGNAGE.SCHEDULER\IMAGES\NOTFOUND.PNG
D:\INTELLIAN SYSTEMS\HSSHIN\PROJECTS\IFRAME\BRANCHES\I-VISION 2.1 (TRUNK)\DIGITALSIGNAGE.SCHEDULER\IMAGES\SERVICE.PNG
D:\INTELLIAN SYSTEMS\HSSHIN\PROJECTS\IFRAME\BRANCHES\I-VISION 2.1 (TRUNK)\DIGITALSIGNAGE.SCHEDULER\IMAGES\TEXTALIGNCENTER.PNG
D:\INTELLIAN SYSTEMS\HSSHIN\PROJECTS\IFRAME\BRANCHES\I-VISION 2.1 (TRUNK)\DIGITALSIGNAGE.SCHEDULER\IMAGES\TEXTALIGNLEFT.PNG
D:\INTELLIAN SYSTEMS\HSSHIN\PROJECTS\IFRAME\BRANCHES\I-VISION 2.1 (TRUNK)\DIGITALSIGNAGE.SCHEDULER\IMAGES\TEXTALIGNRIGHT.PNG
^E:\INTELLIAN\PROJECTS\IFRAME\BRANCHES\I-VISION 2.1 (TRUNK)\DIGITALSIGNAGE.SCHEDULER\COMPONENTS\SPREADSHEET.RESX
^E:\INTELLIAN\PROJECTS\IFRAME\BRANCHES\I-VISION 2.1 (TRUNK)\DIGITALSIGNAGE.SCHEDULER\CULTURES\RESOURCES.RESX
C:\WINDOWS\ASSEMBLY\PUBPOL49.DAT
C:\WINDOWS\MICROSOFT.NET\ASSEMBLY\GAC_MSIL\MICROSOFT.BUILD.TASKS.V4.0\V4.0_4.0.0.0__B03F5F7F11D50A3A\MICROSOFT.BUILD.TASKS.V4.0.DLL
E:\INTELLIAN\PROJECTS\IFRAME\BRANCHES\I-VISION 2.1 (TRUNK)\DIGITALSIGNAGE.SCHEDULER\IMAGES\FTPOFF.PNG
E:\INTELLIAN\PROJECTS\IFRAME\BRANCHES\I-VISION 2.1 (TRUNK)\DIGITALSIGNAGE.SCHEDULER\IMAGES\FTP.PNG
E:\INTELLIAN\PROJECTS\IFRAME\BRANCHES\I-VISION 2.1 (TRUNK)\DIGITALSIGNAGE.SCHEDULER\IMAGES\NOTFOUND.PNG
E:\INTELLIAN\PROJECTS\IFRAME\BRANCHES\I-VISION 2.1 (TRUNK)\DIGITALSIGNAGE.SCHEDULER\IMAGES\SERVICE.PNG
E:\INTELLIAN\PROJECTS\IFRAME\BRANCHES\I-VISION 2.1 (TRUNK)\DIGITALSIGNAGE.SCHEDULER\IMAGES\TEXTALIGNCENTER.PNG
E:\INTELLIAN\PROJECTS\IFRAME\BRANCHES\I-VISION 2.1 (TRUNK)\DIGITALSIGNAGE.SCHEDULER\IMAGES\TEXTALIGNLEFT.PNG
E:\INTELLIAN\PROJECTS\IFRAME\BRANCHES\I-VISION 2.1 (TRUNK)\DIGITALSIGNAGE.SCHEDULER\IMAGES\TEXTALIGNRIGHT.PNG
E:\INTELLIAN\PROJECTS\IFRAME\BRANCHES\I-VISION 2.1 (TRUNK)\DIGITALSIGNAGE.SCHEDULER\IMAGES\ICON_16X16.PNG
E:\INTELLIAN\PROJECTS\IFRAME\BRANCHES\I-VISION 2.1 (TRUNK)\DIGITALSIGNAGE.SCHEDULER\IMAGES\ICON16_ADD_GROUP.PNG
E:\INTELLIAN\PROJECTS\IFRAME\BRANCHES\I-VISION 2.1 (TRUNK)\DIGITALSIGNAGE.SCHEDULER\IMAGES\ICON16_ADD_PLAYER.PNG
E:\INTELLIAN\PROJECTS\IFRAME\BRANCHES\I-VISION 2.1 (TRUNK)\DIGITALSIGNAGE.SCHEDULER\IMAGES\ICON16_ADD_PROGRAM_TASK.PNG
E:\INTELLIAN\PROJECTS\IFRAME\BRANCHES\I-VISION 2.1 (TRUNK)\DIGITALSIGNAGE.SCHEDULER\IMAGES\ICON16_ADD_SUBTITLE_TASK.PNG
E:\INTELLIAN\PROJECTS\IFRAME\BRANCHES\I-VISION 2.1 (TRUNK)\DIGITALSIGNAGE.SCHEDULER\IMAGES\ICON16_DELETE_GROUP.PNG
E:\INTELLIAN\PROJECTS\IFRAME\BRANCHES\I-VISION 2.1 (TRUNK)\DIGITALSIGNAGE.SCHEDULER\IMAGES\ICON16_DELETE_PLAYER.PNG
E:\INTELLIAN\PROJECTS\IFRAME\BRANCHES\I-VISION 2.1 (TRUNK)\DIGITALSIGNAGE.SCHEDULER\IMAGES\ICON16_DELETE_TASK.PNG
E:\INTELLIAN\PROJECTS\IFRAME\BRANCHES\I-VISION 2.1 (TRUNK)\DIGITALSIGNAGE.SCHEDULER\IMAGES\ICON16_EDIT_GROUP.PNG
E:\INTELLIAN\PROJECTS\IFRAME\BRANCHES\I-VISION 2.1 (TRUNK)\DIGITALSIGNAGE.SCHEDULER\IMAGES\ICON16_EDIT_PLAYER.PNG
E:\INTELLIAN\PROJECTS\IFRAME\BRANCHES\I-VISION 2.1 (TRUNK)\DIGITALSIGNAGE.SCHEDULER\IMAGES\ICON16_EDIT_TASK.PNG
E:\INTELLIAN\PROJECTS\IFRAME\BRANCHES\I-VISION 2.1 (TRUNK)\DIGITALSIGNAGE.SCHEDULER\IMAGES\ICON_STATUS_OFF.PNG
E:\INTELLIAN\PROJECTS\IFRAME\BRANCHES\I-VISION 2.1 (TRUNK)\DIGITALSIGNAGE.SCHEDULER\IMAGES\ICON_STATUS_ON.PNG
E:\INTELLIAN\PROJECTS\IFRAME\BRANCHES\I-VISION 2.1 (TRUNK)\DIGITALSIGNAGE.SCHEDULER\IMAGES\ICON16_TASK_WIZARD.PNG
E:\INTELLIAN\PROJECTS\IFRAME\BRANCHES\I-VISION 2.1 (TRUNK)\DIGITALSIGNAGE.SCHEDULER\IMAGES\ICON16_USER_MANAGEMENT.PNG
E:\INTELLIAN\PROJECTS\IFRAME\BRANCHES\I-VISION 2.1 (TRUNK)\DIGITALSIGNAGE.SCHEDULER\IMAGES\I_VISION_16X16.PNG
E:\INTELLIAN\PROJECTS\IFRAME\BRANCHES\I-VISION 2.1 (TRUNK)\DIGITALSIGNAGE.SCHEDULER\IMAGES\I_VISION_27X27.PNG
E:\INTELLIAN\PROJECTS\IFRAME\BRANCHES\I-VISION 2.1 (TRUNK)\DIGITALSIGNAGE.SCHEDULER\IMAGES\16RE-SCHEDULE.PNG
E:\INTELLIAN\PROJECTS\IFRAME\BRANCHES\I-VISION 2.1 (TRUNK)\DIGITALSIGNAGE.SCHEDULER\IMAGES\NETWORK-GROUP.PNG
E:\INTELLIAN\PROJECTS\IFRAME\BRANCHES\I-VISION 2.1 (TRUNK)\DIGITALSIGNAGE.SCHEDULER\IMAGES\PLAYER-GROUP.PNG
E:\INTELLIAN\PROJECTS\IFRAME\BRANCHES\I-VISION 2.1 (TRUNK)\DIGITALSIGNAGE.SCHEDULER\IMAGES\ZOOM-IN16.PNG
E:\INTELLIAN\PROJECTS\IFRAME\BRANCHES\I-VISION 2.1 (TRUNK)\DIGITALSIGNAGE.SCHEDULER\IMAGES\DELETE.PNG
E:\INTELLIAN\PROJECTS\IFRAME\BRANCHES\I-VISION 2.1 (TRUNK)\DIGITALSIGNAGE.SCHEDULER\IMAGES\PLUS.PNG
E:\INTELLIAN\PROJECTS\IFRAME\BRANCHES\I-VISION 2.1 (TRUNK)\DIGITALSIGNAGE.SCHEDULER\IMAGES\SAVE.PNG
E:\INTELLIAN\PROJECTS\IFRAME\BRANCHES\I-VISION 2.1 (TRUNK)\DIGITALSIGNAGE.SCHEDULER\IMAGES\ICON_EXPORT.PNG
E:\INTELLIAN\PROJECTS\IFRAME\BRANCHES\I-VISION 2.1 (TRUNK)\DIGITALSIGNAGE.SCHEDULER\IMAGES\ICON_PREVIEW.PNG
E:\INTELLIAN\PROJECTS\IFRAME\BRANCHES\I-VISION 2.1 (TRUNK)\DIGITALSIGNAGE.SCHEDULER\IMAGES\16LIMITREGISTRATION.PNG
E:\INTELLIAN\PROJECTS\IFRAME\BRANCHES\I-VISION 2.1 (TRUNK)\DIGITALSIGNAGE.SCHEDULER\IMAGES\16LIMITREMOVE.PNG
E:\INTELLIAN\PROJECTS\IFRAME\BRANCHES\I-VISION 2.1 (TRUNK)\DIGITALSIGNAGE.SCHEDULER\IMAGES\ALL-SELECT.PNG
E:\INTELLIAN\PROJECTS\IFRAME\BRANCHES\I-VISION 2.1 (TRUNK)\DIGITALSIGNAGE.SCHEDULER\IMAGES\BRING-TO-FRONT.PNG
E:\INTELLIAN\PROJECTS\IFRAME\BRANCHES\I-VISION 2.1 (TRUNK)\DIGITALSIGNAGE.SCHEDULER\IMAGES\ICON16_ADD_CONTROL_TASK.PNG
E:\INTELLIAN\PROJECTS\IFRAME\BRANCHES\I-VISION 2.1 (TRUNK)\DIGITALSIGNAGE.SCHEDULER\IMAGES\AMT.PNG
E:\INTELLIAN\PROJECTS\IFRAME\BRANCHES\I-VISION 2.1 (TRUNK)\DIGITALSIGNAGE.SCHEDULER\IMAGES\WOL.PNG
E:\INTELLIAN\PROJECTS\IFRAME\BRANCHES\I-VISION 2.1 (TRUNK)\DIGITALSIGNAGE.SCHEDULER\IMAGES\POWER_OFF.PNG
E:\INTELLIAN\PROJECTS\IFRAME\BRANCHES\I-VISION 2.1 (TRUNK)\DIGITALSIGNAGE.SCHEDULER\IMAGES\POWER_ON.PNG
E:\INTELLIAN\PROJECTS\IFRAME\BRANCHES\I-VISION 2.1 (TRUNK)\DIGITALSIGNAGE.SCHEDULER\IMAGES\POWER_RESTART.PNG
E:\INTELLIAN\PROJECTS\IFRAME\BRANCHES\I-VISION 2.1 (TRUNK)\DIGITALSIGNAGE.SCHEDULER\IMAGES\16_LOG_SCHEDULE.PNG
E:\INTELLIAN\PROJECTS\IFRAME\BRANCHES\I-VISION 2.1 (TRUNK)\DIGITALSIGNAGE.SCHEDULER\IMAGES\16_LOG_VIEW.PNG
E:\INTELLIAN\PROJECTS\IFRAME\BRANCHES\I-VISION 2.1 (TRUNK)\DIGITALSIGNAGE.SCHEDULER\IMAGES\16_REPORT_VIEW.PNG
E:\INTELLIAN\PROJECTS\IFRAME\BRANCHES\I-VISION 2.1 (TRUNK)\DIGITALSIGNAGE.SCHEDULER\IMAGES\TIMELINE_AD.PNG
E:\INTELLIAN\PROJECTS\IFRAME\BRANCHES\I-VISION 2.1 (TRUNK)\DIGITALSIGNAGE.SCHEDULER\IMAGES\TIMELINE_EVENT.PNG
E:\INTELLIAN\PROJECTS\IFRAME\BRANCHES\I-VISION 2.1 (TRUNK)\DIGITALSIGNAGE.SCHEDULER\IMAGES\TIMELINE_EVENTONLY.PNG
E:\INTELLIAN\PROJECTS\IFRAME\BRANCHES\I-VISION 2.1 (TRUNK)\DIGITALSIGNAGE.SCHEDULER\IMAGES\TIMELINE_ICONLIST.PNG
E:\INTELLIAN\PROJECTS\IFRAME\BRANCHES\I-VISION 2.1 (TRUNK)\DIGITALSIGNAGE.SCHEDULER\IMAGES\TIMELINE_ONLY.PNG
E:\INTELLIAN\PROJECTS\IFRAME\BRANCHES\I-VISION 2.1 (TRUNK)\DIGITALSIGNAGE.SCHEDULER\IMAGES\ICON_STATUS_NONE.PNG
E:\INTELLIAN\PROJECTS\IFRAME\BRANCHES\I-VISION 2.1 (TRUNK)\DIGITALSIGNAGE.SCHEDULER\RESOURCES\TIMELINE_TOUCH.PNG
^E:\INTELLIAN\PROJECTS\IFRAME\BRANCHES\I-VISION 2.1 (TRUNK)\DIGITALSIGNAGE.SCHEDULER\CULTURES\RESOURCES.EN-US.RESX
E:\INTELLIAN\PROJECTS\IFRAME\BRANCHES\I-VISION 2.1 (TRUNK)\DIGITALSIGNAGE.SCHEDULER\IMAGES\FTPOFF.PNG
E:\INTELLIAN\PROJECTS\IFRAME\BRANCHES\I-VISION 2.1 (TRUNK)\DIGITALSIGNAGE.SCHEDULER\IMAGES\FTP.PNG
E:\INTELLIAN\PROJECTS\IFRAME\BRANCHES\I-VISION 2.1 (TRUNK)\DIGITALSIGNAGE.SCHEDULER\IMAGES\NOTFOUND.PNG
E:\INTELLIAN\PROJECTS\IFRAME\BRANCHES\I-VISION 2.1 (TRUNK)\DIGITALSIGNAGE.SCHEDULER\IMAGES\SERVICE.PNG
E:\INTELLIAN\PROJECTS\IFRAME\BRANCHES\I-VISION 2.1 (TRUNK)\DIGITALSIGNAGE.SCHEDULER\IMAGES\TEXTALIGNCENTER.PNG
E:\INTELLIAN\PROJECTS\IFRAME\BRANCHES\I-VISION 2.1 (TRUNK)\DIGITALSIGNAGE.SCHEDULER\IMAGES\TEXTALIGNLEFT.PNG
E:\INTELLIAN\PROJECTS\IFRAME\BRANCHES\I-VISION 2.1 (TRUNK)\DIGITALSIGNAGE.SCHEDULER\IMAGES\TEXTALIGNRIGHT.PNG
^E:\INTELLIAN\PROJECTS\IFRAME\BRANCHES\I-VISION 2.1 (TRUNK)\DIGITALSIGNAGE.SCHEDULER\CULTURES\RESOURCES.KO-KR.RESX
E:\INTELLIAN\PROJECTS\IFRAME\BRANCHES\I-VISION 2.1 (TRUNK)\DIGITALSIGNAGE.SCHEDULER\CULTURES\RESOURCES.KO-KR.DESIGNER.CS
E:\INTELLIAN\PROJECTS\IFRAME\BRANCHES\I-VISION 2.1 (TRUNK)\DIGITALSIGNAGE.SCHEDULER\IMAGES\FTPOFF.PNG
E:\INTELLIAN\PROJECTS\IFRAME\BRANCHES\I-VISION 2.1 (TRUNK)\DIGITALSIGNAGE.SCHEDULER\IMAGES\FTP.PNG
E:\INTELLIAN\PROJECTS\IFRAME\BRANCHES\I-VISION 2.1 (TRUNK)\DIGITALSIGNAGE.SCHEDULER\IMAGES\NOTFOUND.PNG
E:\INTELLIAN\PROJECTS\IFRAME\BRANCHES\I-VISION 2.1 (TRUNK)\DIGITALSIGNAGE.SCHEDULER\IMAGES\SERVICE.PNG
E:\INTELLIAN\PROJECTS\IFRAME\BRANCHES\I-VISION 2.1 (TRUNK)\DIGITALSIGNAGE.SCHEDULER\IMAGES\TEXTALIGNCENTER.PNG
E:\INTELLIAN\PROJECTS\IFRAME\BRANCHES\I-VISION 2.1 (TRUNK)\DIGITALSIGNAGE.SCHEDULER\IMAGES\TEXTALIGNLEFT.PNG
E:\INTELLIAN\PROJECTS\IFRAME\BRANCHES\I-VISION 2.1 (TRUNK)\DIGITALSIGNAGE.SCHEDULER\IMAGES\TEXTALIGNRIGHT.PNG
