^D:\INTELLIAN SYSTEMS\HSSHIN\PROJECTS\IFRAME\BRANCHES\I-VISION 2.1 (TRUNK)\IVISIONCONFIGURATION\CONFIGURATIONFORM.RESX|D:\INTELLIAN SYSTEMS\HSSHIN\PROJECTS\IFRAME\BRANCHES\I-VISION 2.1 (TRUNK)\IVISIONCONFIGURATION\CONFIGURATIONLOADER.RESX|D:\INTELLIAN SYSTEMS\HSSHIN\PROJECTS\IFRAME\BRANCHES\I-VISION 2.1 (TRUNK)\IVISIONCONFIGURATION\DIALOGS\SYSTEMINFORMATIONVIEWER.RESX|D:\INTELLIAN SYSTEMS\HSSHIN\PROJECTS\IFRAME\BRANCHES\I-VISION 2.1 (TRUNK)\IVISIONCONFIGURATION\PAGES\CONTENTS SERVER\CONTSERVERPAGE.RESX|D:\INTELLIAN SYSTEMS\HSSHIN\PROJECTS\IFRAME\BRANCHES\I-VISION 2.1 (TRUNK)\IVISIONCONFIGURATION\PAGES\GENERAL\CHANGEEDITIONPAGE.RESX|D:\INTELLIAN SYSTEMS\HSSHIN\PROJECTS\IFRAME\BRANCHES\I-VISION 2.1 (TRUNK)\IVISIONCONFIGURATION\PAGES\GENERAL\ENVIRONMENTPAGE.RESX|D:\INTELLIAN SYSTEMS\HSSHIN\PROJECTS\IFRAME\BRANCHES\I-VISION 2.1 (TRUNK)\IVISIONCONFIGURATION\PAGES\MANAGER\MUPDATEPAGE.RESX|D:\INTELLIAN SYSTEMS\HSSHIN\PROJECTS\IFRAME\BRANCHES\I-VISION 2.1 (TRUNK)\IVISIONCONFIGURATION\PAGES\PLAYER\PLAYERUIPAGE.RESX|D:\INTELLIAN SYSTEMS\HSSHIN\PROJECTS\IFRAME\BRANCHES\I-VISION 2.1 (TRUNK)\IVISIONCONFIGURATION\PAGES\PLAYER\PUPDATEPAGE.RESX|D:\INTELLIAN SYSTEMS\HSSHIN\PROJECTS\IFRAME\BRANCHES\I-VISION 2.1 (TRUNK)\IVISIONCONFIGURATION\PAGES\PLAYER\SUBTITLEUIPAGE.RESX|D:\INTELLIAN SYSTEMS\HSSHIN\PROJECTS\IFRAME\BRANCHES\I-VISION 2.1 (TRUNK)\IVISIONCONFIGURATION\PAGES\SERVER\SERVERPAGE.RESX
D:\INTELLIAN SYSTEMS\HSSHIN\PROJECTS\IFRAME\BRANCHES\I-VISION 2.1 (TRUNK)\IVISIONCONFIGURATION\OBJ\X64\RELEASE\IVISIONCONFIGURATION.CONFIGURATIONFORM.RESOURCES
D:\INTELLIAN SYSTEMS\HSSHIN\PROJECTS\IFRAME\BRANCHES\I-VISION 2.1 (TRUNK)\IVISIONCONFIGURATION\OBJ\X64\RELEASE\IVISIONCONFIGURATION.SYSTEMINFORMATIONVIEWER.RESOURCES
D:\INTELLIAN SYSTEMS\HSSHIN\PROJECTS\IFRAME\BRANCHES\I-VISION 2.1 (TRUNK)\IVISIONCONFIGURATION\OBJ\X64\RELEASE\IVISIONCONFIGURATION.CONFIGURATIONLOADER.RESOURCES
D:\INTELLIAN SYSTEMS\HSSHIN\PROJECTS\IFRAME\BRANCHES\I-VISION 2.1 (TRUNK)\IVISIONCONFIGURATION\OBJ\X64\RELEASE\IVISIONCONFIGURATION.PAGES.CONTSERVERPAGE.RESOURCES
D:\INTELLIAN SYSTEMS\HSSHIN\PROJECTS\IFRAME\BRANCHES\I-VISION 2.1 (TRUNK)\IVISIONCONFIGURATION\OBJ\X64\RELEASE\IVISIONCONFIGURATION.CHANGEEDITIONPAGE.RESOURCES
D:\INTELLIAN SYSTEMS\HSSHIN\PROJECTS\IFRAME\BRANCHES\I-VISION 2.1 (TRUNK)\IVISIONCONFIGURATION\OBJ\X64\RELEASE\IVISIONCONFIGURATION.MUPDATEPAGE.RESOURCES
D:\INTELLIAN SYSTEMS\HSSHIN\PROJECTS\IFRAME\BRANCHES\I-VISION 2.1 (TRUNK)\IVISIONCONFIGURATION\OBJ\X64\RELEASE\IVISIONCONFIGURATION.PAGES.SUBTITLEUIPAGE.RESOURCES
D:\INTELLIAN SYSTEMS\HSSHIN\PROJECTS\IFRAME\BRANCHES\I-VISION 2.1 (TRUNK)\IVISIONCONFIGURATION\OBJ\X64\RELEASE\IVISIONCONFIGURATION.ENVIRONMENTPAGE.RESOURCES
D:\INTELLIAN SYSTEMS\HSSHIN\PROJECTS\IFRAME\BRANCHES\I-VISION 2.1 (TRUNK)\IVISIONCONFIGURATION\OBJ\X64\RELEASE\IVISIONCONFIGURATION.PUPDATEPAGE.RESOURCES
D:\INTELLIAN SYSTEMS\HSSHIN\PROJECTS\IFRAME\BRANCHES\I-VISION 2.1 (TRUNK)\IVISIONCONFIGURATION\OBJ\X64\RELEASE\IVISIONCONFIGURATION.PAGES.PLAYERUIPAGE.RESOURCES
D:\INTELLIAN SYSTEMS\HSSHIN\PROJECTS\IFRAME\BRANCHES\I-VISION 2.1 (TRUNK)\IVISIONCONFIGURATION\OBJ\X64\RELEASE\IVISIONCONFIGURATION.SERVERPAGE.RESOURCES
