^D:\INTELLIAN SYSTEMS\HSSHIN\PROJECTS\IFRAME\BRANCHES\I-VISION 2.1 (TRUNK)\DIGITALSIGNAGE.CONTROLS\AXMEDIACONTROL.RESX
^D:\INTELLIAN SYSTEMS\HSSHIN\PROJECTS\IFRAME\BRANCHES\I-VISION 2.1 (TRUNK)\DIGITALSIGNAGE.CONTROLS\FLASHCONTROL.RESX
^D:\INTELLIAN SYSTEMS\HSSHIN\PROJECTS\IFRAME\BRANCHES\I-VISION 2.1 (TRUNK)\DIGITALSIGNAGE.CONTROLS\PPTCONTROL.RESX
^D:\INTELLIAN SYSTEMS\HSSHIN\PROJECTS\IFRAME\BRANCHES\I-VISION 2.1 (TRUNK)\DIGITALSIGNAGE.CONTROLS\PROPERTIES\RESOURCES.RESX
^D:\INTELLIAN SYSTEMS\HSSHIN\PROJECTS\IFRAME\BRANCHES\I-VISION 2.1 (TRUNK)\DIGITALSIGNAGE.CONTROLS\QUICKTIMECONTROL.RESX
^D:\INTELLIAN SYSTEMS\HSSHIN\PROJECTS\IFRAME\BRANCHES\I-VISION 2.1 (TRUNK)\DIGITALSIGNAGE.CONTROLS\WEBCONTROL.RESX
^E:\INTELLIAN\PROJECTS\IFRAME\BRANCHES\I-VISION 2.1 (TRUNK)\DIGITALSIGNAGE.CONTROLS\AXMEDIACONTROL.RESX
^E:\INTELLIAN\PROJECTS\IFRAME\BRANCHES\I-VISION 2.1 (TRUNK)\DIGITALSIGNAGE.CONTROLS\FLASHCONTROL.RESX
^E:\INTELLIAN\PROJECTS\IFRAME\BRANCHES\I-VISION 2.1 (TRUNK)\DIGITALSIGNAGE.CONTROLS\PPTCONTROL.RESX
^E:\INTELLIAN\PROJECTS\IFRAME\BRANCHES\I-VISION 2.1 (TRUNK)\DIGITALSIGNAGE.CONTROLS\PROPERTIES\RESOURCES.RESX
^E:\INTELLIAN\PROJECTS\IFRAME\BRANCHES\I-VISION 2.1 (TRUNK)\DIGITALSIGNAGE.CONTROLS\QUICKTIMECONTROL.RESX
^E:\INTELLIAN\PROJECTS\IFRAME\BRANCHES\I-VISION 2.1 (TRUNK)\DIGITALSIGNAGE.CONTROLS\WEBCONTROL.RESX
